# iteration n	|	normalized LSystem	average	min	max	confidence	FastOpenCLLSystem	average	min	max	confidence	speedup	efficiency	overhead	FastOpenCLLSystem	average	min	max	confidence	speedup	efficiency	overhead	FastOpenCLLSystem	average	min	max	confidence	speedup	efficiency	overhead	FastOpenCLLSystem	average	min	max	confidence	speedup	efficiency	overhead	FastOpenCLLSystem	average	min	max	confidence	speedup	efficiency	overhead	FastOpenCLLSystem	average	min	max	confidence	speedup	efficiency	overhead	FastOpenCLLSystem	average	min	max	confidence	speedup	efficiency	overhead	FastOpenCLLSystem	average	min	max	confidence	speedup	efficiency	overhead	FastOpenCLLSystem	average	min	max	confidence	speedup	efficiency	overhead	FastOpenCLLSystem	average	min	max	confidence	speedup	efficiency	overhead
1	|	normalized LSystem	0.000003	0.000002	0.000006	0.000001	FastOpenCLLSystem-2	0.170466	0.168182	0.179914	0.002464	0.000018	0.000009	0.340929	FastOpenCLLSystem-4	0.174715	0.166314	0.181664	0.003243	0.000018	0.000004	0.698857	FastOpenCLLSystem-8	0.170795	0.166476	0.180213	0.003531	0.000018	0.000002	1.366360	FastOpenCLLSystem-16	0.176865	0.172085	0.179606	0.001776	0.000017	0.000001	2.829838	FastOpenCLLSystem-32	0.175059	0.165663	0.180826	0.003552	0.000018	0.000001	5.601893	FastOpenCLLSystem-64	0.177838	0.166432	0.194195	0.005342	0.000017	0.000000	11.381609	FastOpenCLLSystem-128	0.174481	0.166272	0.181542	0.004162	0.000018	0.000000	22.333517	FastOpenCLLSystem-256	0.172235	0.165881	0.181019	0.004021	0.000018	0.000000	44.092110	FastOpenCLLSystem-512	0.174606	0.165759	0.182020	0.004289	0.000018	0.000000	89.398180	FastOpenCLLSystem-1024	0.171049	0.164643	0.179553	0.003375	0.000018	0.000000	175.154028
2	|	normalized LSystem	0.000007	0.000005	0.000009	0.000001	FastOpenCLLSystem-2	0.178867	0.167106	0.188305	0.003958	0.000041	0.000020	0.357726	FastOpenCLLSystem-4	0.175403	0.166704	0.184212	0.004644	0.000042	0.000010	0.701604	FastOpenCLLSystem-8	0.171608	0.163095	0.181505	0.004041	0.000042	0.000005	1.372857	FastOpenCLLSystem-16	0.171859	0.166527	0.184476	0.004371	0.000042	0.000003	2.749739	FastOpenCLLSystem-32	0.173521	0.167170	0.181620	0.003795	0.000042	0.000001	5.552654	FastOpenCLLSystem-64	0.181235	0.175060	0.189019	0.002285	0.000040	0.000001	11.599002	FastOpenCLLSystem-128	0.176612	0.164117	0.194279	0.006431	0.000041	0.000000	22.606323	FastOpenCLLSystem-256	0.175026	0.168081	0.181772	0.003778	0.000042	0.000000	44.806670	FastOpenCLLSystem-512	0.177537	0.171605	0.189120	0.003362	0.000041	0.000000	90.899056	FastOpenCLLSystem-1024	0.177840	0.167004	0.181353	0.002584	0.000041	0.000000	182.108054
3	|	normalized LSystem	0.000012	0.000011	0.000027	0.000003	FastOpenCLLSystem-2	0.174582	0.166593	0.181032	0.003886	0.000071	0.000036	0.349151	FastOpenCLLSystem-4	0.172999	0.163646	0.182352	0.004516	0.000072	0.000018	0.691984	FastOpenCLLSystem-8	0.169577	0.164719	0.180109	0.002745	0.000073	0.000009	1.356601	FastOpenCLLSystem-16	0.171803	0.165250	0.180871	0.003629	0.000073	0.000005	2.748833	FastOpenCLLSystem-32	0.175049	0.163522	0.182609	0.004045	0.000071	0.000002	5.601567	FastOpenCLLSystem-64	0.169004	0.167004	0.176348	0.001633	0.000074	0.000001	10.816215	FastOpenCLLSystem-128	0.179910	0.173526	0.193448	0.004222	0.000069	0.000001	23.028523	FastOpenCLLSystem-256	0.174045	0.165925	0.181709	0.004115	0.000072	0.000000	44.555609	FastOpenCLLSystem-512	0.172297	0.164853	0.180763	0.004032	0.000072	0.000000	88.216104	FastOpenCLLSystem-1024	0.170187	0.164849	0.177760	0.002527	0.000073	0.000000	174.271587
4	|	normalized LSystem	0.000017	0.000016	0.000017	0.000000	FastOpenCLLSystem-2	0.174302	0.166640	0.181115	0.003979	0.000096	0.000048	0.348588	FastOpenCLLSystem-4	0.176812	0.166047	0.189776	0.004971	0.000094	0.000024	0.707231	FastOpenCLLSystem-8	0.172244	0.165775	0.180708	0.003406	0.000097	0.000012	1.377939	FastOpenCLLSystem-16	0.176456	0.166586	0.183528	0.004030	0.000095	0.000006	2.823274	FastOpenCLLSystem-32	0.179964	0.174278	0.184173	0.001706	0.000093	0.000003	5.758828	FastOpenCLLSystem-64	0.175740	0.167255	0.180335	0.002710	0.000095	0.000001	11.247331	FastOpenCLLSystem-128	0.171141	0.166287	0.181334	0.003558	0.000098	0.000001	21.906050	FastOpenCLLSystem-256	0.175790	0.166623	0.184977	0.004012	0.000095	0.000000	45.002151	FastOpenCLLSystem-512	0.173159	0.162287	0.183991	0.004983	0.000096	0.000000	88.657468	FastOpenCLLSystem-1024	0.169402	0.167397	0.181648	0.002668	0.000099	0.000000	173.467379
5	|	normalized LSystem	0.000028	0.000027	0.000030	0.000001	FastOpenCLLSystem-2	0.170529	0.166390	0.180666	0.003174	0.000164	0.000082	0.341031	FastOpenCLLSystem-4	0.181363	0.176677	0.190505	0.002362	0.000154	0.000039	0.725422	FastOpenCLLSystem-8	0.177269	0.166858	0.184056	0.003685	0.000158	0.000020	1.418125	FastOpenCLLSystem-16	0.169089	0.167005	0.178808	0.002161	0.000166	0.000010	2.705400	FastOpenCLLSystem-32	0.178118	0.166676	0.188898	0.004381	0.000157	0.000005	5.699752	FastOpenCLLSystem-64	0.177893	0.166443	0.182920	0.002759	0.000157	0.000002	11.385156	FastOpenCLLSystem-128	0.179549	0.167908	0.190587	0.003832	0.000156	0.000001	22.982183	FastOpenCLLSystem-256	0.171817	0.167756	0.183844	0.003711	0.000163	0.000001	43.985072	FastOpenCLLSystem-512	0.175966	0.168184	0.180650	0.003360	0.000159	0.000000	90.094756	FastOpenCLLSystem-1024	0.170587	0.167895	0.182970	0.003307	0.000164	0.000000	174.680750
6	|	normalized LSystem	0.000053	0.000051	0.000059	0.000002	FastOpenCLLSystem-2	0.181898	0.177310	0.190760	0.002395	0.000291	0.000145	0.363742	FastOpenCLLSystem-4	0.181043	0.166437	0.195115	0.005016	0.000292	0.000073	0.724119	FastOpenCLLSystem-8	0.174205	0.168101	0.181839	0.003404	0.000303	0.000038	1.393584	FastOpenCLLSystem-16	0.180014	0.167296	0.189080	0.004007	0.000294	0.000018	2.880169	FastOpenCLLSystem-32	0.182281	0.176778	0.198185	0.004244	0.000290	0.000009	5.832925	FastOpenCLLSystem-64	0.176472	0.166385	0.182119	0.003661	0.000299	0.000005	11.294131	FastOpenCLLSystem-128	0.172372	0.167682	0.183544	0.003668	0.000307	0.000002	22.063599	FastOpenCLLSystem-256	0.170489	0.167550	0.181405	0.003131	0.000310	0.000001	43.645192	FastOpenCLLSystem-512	0.170954	0.167363	0.181563	0.003007	0.000309	0.000001	87.528217	FastOpenCLLSystem-1024	0.172877	0.167667	0.180115	0.003273	0.000306	0.000000	177.025869
7	|	normalized LSystem	0.000126	0.000125	0.000128	0.000001	FastOpenCLLSystem-2	0.179695	0.174279	0.191630	0.003209	0.000700	0.000350	0.359264	FastOpenCLLSystem-4	0.182326	0.177878	0.194087	0.002859	0.000690	0.000172	0.729179	FastOpenCLLSystem-8	0.180839	0.174671	0.189044	0.002644	0.000696	0.000087	1.446585	FastOpenCLLSystem-16	0.179344	0.167734	0.190191	0.003658	0.000701	0.000044	2.869379	FastOpenCLLSystem-32	0.180217	0.175619	0.184559	0.001791	0.000698	0.000022	5.766811	FastOpenCLLSystem-64	0.178507	0.166289	0.186035	0.003415	0.000705	0.000011	11.424334	FastOpenCLLSystem-128	0.182808	0.175151	0.203857	0.005400	0.000688	0.000005	23.399256	FastOpenCLLSystem-256	0.173792	0.165341	0.190927	0.005359	0.000724	0.000003	44.490581	FastOpenCLLSystem-512	0.177279	0.167505	0.183912	0.004222	0.000710	0.000001	90.766852	FastOpenCLLSystem-1024	0.180085	0.166674	0.183896	0.003167	0.000699	0.000001	184.407255
8	|	normalized LSystem	0.000198	0.000196	0.000211	0.000003	FastOpenCLLSystem-2	0.170898	0.167604	0.197927	0.005843	0.001160	0.000580	0.341598	FastOpenCLLSystem-4	0.177545	0.166813	0.185650	0.003815	0.001117	0.000279	0.709981	FastOpenCLLSystem-8	0.173402	0.167416	0.184690	0.004642	0.001143	0.000143	1.387018	FastOpenCLLSystem-16	0.173070	0.167523	0.182821	0.004160	0.001146	0.000072	2.768914	FastOpenCLLSystem-32	0.179079	0.167732	0.195599	0.005661	0.001107	0.000035	5.730320	FastOpenCLLSystem-64	0.186835	0.178630	0.205267	0.005239	0.001061	0.000017	11.957228	FastOpenCLLSystem-128	0.182325	0.177142	0.193369	0.002808	0.001087	0.000008	23.337346	FastOpenCLLSystem-256	0.184404	0.168575	0.195443	0.005211	0.001075	0.000004	47.207219	FastOpenCLLSystem-512	0.179908	0.176029	0.184050	0.001516	0.001102	0.000002	92.112913	FastOpenCLLSystem-1024	0.182259	0.174538	0.192405	0.003500	0.001088	0.000001	186.633477
9	|	normalized LSystem	0.000386	0.000383	0.000401	0.000003	FastOpenCLLSystem-2	0.182987	0.176601	0.195652	0.004193	0.002111	0.001056	0.365589	FastOpenCLLSystem-4	0.184515	0.167995	0.195587	0.005405	0.002094	0.000523	0.737672	FastOpenCLLSystem-8	0.182566	0.176674	0.194735	0.003400	0.002116	0.000265	1.460139	FastOpenCLLSystem-16	0.183857	0.175615	0.195860	0.003897	0.002101	0.000131	2.941332	FastOpenCLLSystem-32	0.189761	0.177549	0.198431	0.004937	0.002036	0.000064	6.071974	FastOpenCLLSystem-64	0.187022	0.176154	0.200936	0.005690	0.002066	0.000032	11.969029	FastOpenCLLSystem-128	0.189442	0.179611	0.195952	0.003783	0.002040	0.000016	24.248216	FastOpenCLLSystem-256	0.188386	0.179274	0.196924	0.004819	0.002051	0.000008	48.226417	FastOpenCLLSystem-512	0.185876	0.179054	0.197178	0.004212	0.002079	0.000004	95.168100	FastOpenCLLSystem-1024	0.187157	0.178538	0.198034	0.004927	0.002064	0.000002	191.648065
10	|	normalized LSystem	0.000958	0.000954	0.000972	0.000004	FastOpenCLLSystem-2	0.192406	0.184217	0.198166	0.002974	0.004982	0.002491	0.383854	FastOpenCLLSystem-4	0.191479	0.177361	0.220622	0.008022	0.005006	0.001251	0.764956	FastOpenCLLSystem-8	0.190045	0.181973	0.197511	0.004092	0.005043	0.000630	1.519403	FastOpenCLLSystem-16	0.191323	0.181674	0.197710	0.003780	0.005010	0.000313	3.060206	FastOpenCLLSystem-32	0.194365	0.188008	0.198187	0.002064	0.004931	0.000154	6.218732	FastOpenCLLSystem-64	0.190236	0.182471	0.199316	0.004047	0.005038	0.000079	12.174175	FastOpenCLLSystem-128	0.190564	0.182586	0.201649	0.004517	0.005030	0.000039	24.391261	FastOpenCLLSystem-256	0.192622	0.181876	0.203118	0.004483	0.004976	0.000019	49.310151	FastOpenCLLSystem-512								FastOpenCLLSystem-1024							
11	|	normalized LSystem	0.001617	0.001610	0.001635	0.000005	FastOpenCLLSystem-2	0.208689	0.199205	0.216667	0.003643	0.007747	0.003873	0.415762	FastOpenCLLSystem-4	0.206196	0.193334	0.214773	0.004729	0.007841	0.001960	0.823168	FastOpenCLLSystem-8	0.210320	0.202857	0.216273	0.002869	0.007687	0.000961	1.680943	FastOpenCLLSystem-16	0.204601	0.194833	0.215678	0.005327	0.007902	0.000494	3.272001	FastOpenCLLSystem-32	0.206173	0.194202	0.215365	0.004812	0.007841	0.000245	6.595931	FastOpenCLLSystem-64	0.209661	0.192550	0.219713	0.005005	0.007711	0.000120	13.416692	FastOpenCLLSystem-128	0.205129	0.193145	0.216290	0.004593	0.007881	0.000062	26.254859	FastOpenCLLSystem-256	0.209239	0.199194	0.214891	0.002600	0.007726	0.000030	53.563601	FastOpenCLLSystem-512	0.201575	0.189425	0.210487	0.003428	0.008020	0.000016	103.204534	FastOpenCLLSystem-1024	0.204798	0.194924	0.216466	0.005083	0.007894	0.000008	209.711051
12	|	normalized LSystem	0.003700	0.003694	0.003709	0.000003	FastOpenCLLSystem-2	0.237188	0.228662	0.247078	0.003633	0.015601	0.007801	0.470676	FastOpenCLLSystem-4	0.226965	0.217005	0.242076	0.004988	0.016304	0.004076	0.904160	FastOpenCLLSystem-8	0.225035	0.216095	0.234774	0.004709	0.016444	0.002055	1.796579	FastOpenCLLSystem-16	0.231449	0.222737	0.244659	0.004678	0.015988	0.000999	3.699489	FastOpenCLLSystem-32	0.228039	0.216783	0.242105	0.005857	0.016227	0.000507	7.293553	FastOpenCLLSystem-64	0.229818	0.216074	0.241539	0.005283	0.016101	0.000252	14.704683	FastOpenCLLSystem-128	0.227577	0.214055	0.244036	0.006008	0.016260	0.000127	29.126173	FastOpenCLLSystem-256	0.226330	0.216992	0.239148	0.005407	0.016350	0.000064	57.936859	FastOpenCLLSystem-512	0.228897	0.218795	0.239056	0.004581	0.016166	0.000032	117.191710	FastOpenCLLSystem-1024							
13	|	normalized LSystem	0.007420	0.007340	0.007498	0.000041	FastOpenCLLSystem-2	0.295229	0.281628	0.313558	0.006656	0.025134	0.012567	0.583038	FastOpenCLLSystem-4	0.275411	0.267356	0.293523	0.005791	0.026942	0.006736	1.094223	FastOpenCLLSystem-8	0.287569	0.278090	0.301087	0.004382	0.025803	0.003225	2.293131	FastOpenCLLSystem-16	0.275257	0.265564	0.295097	0.005648	0.026957	0.001685	4.396689	FastOpenCLLSystem-32	0.283459	0.270770	0.295424	0.004309	0.026177	0.000818	9.063269	FastOpenCLLSystem-64	0.273909	0.266042	0.283898	0.003762	0.027090	0.000423	17.522763	FastOpenCLLSystem-128	0.294925	0.265545	0.336801	0.011103	0.025160	0.000197	37.743030	FastOpenCLLSystem-256	0.278484	0.265686	0.297524	0.006861	0.026645	0.000104	71.284485	FastOpenCLLSystem-512	0.277119	0.264485	0.294029	0.005900	0.026776	0.000052	141.877488	FastOpenCLLSystem-1024	0.278465	0.265760	0.294578	0.006039	0.026647	0.000026	285.140546
14	|	normalized LSystem	0.013765	0.012917	0.024083	0.002193	FastOpenCLLSystem-2	0.395673	0.381298	0.421578	0.010883	0.034788	0.017394	0.777581	FastOpenCLLSystem-4	0.378119	0.363506	0.397185	0.006780	0.036403	0.009101	1.498711	FastOpenCLLSystem-8	0.365710	0.350952	0.390085	0.008267	0.037638	0.004705	2.911913	FastOpenCLLSystem-16	0.378324	0.350935	0.432813	0.013958	0.036383	0.002274	6.039413	FastOpenCLLSystem-32	0.366225	0.350760	0.391855	0.008925	0.037585	0.001175	11.705440	FastOpenCLLSystem-64	0.361772	0.349798	0.394803	0.009205	0.038047	0.000594	23.139649	FastOpenCLLSystem-128	0.355350	0.346391	0.381914	0.006403	0.038735	0.000303	45.471055	FastOpenCLLSystem-256	0.366164	0.345007	0.383303	0.008025	0.037591	0.000147	93.724110	FastOpenCLLSystem-512	0.371378	0.355712	0.393393	0.007594	0.037063	0.000072	190.132011	FastOpenCLLSystem-1024	0.364926	0.349471	0.377774	0.005589	0.037719	0.000037	373.670369
15	|	normalized LSystem	0.025799	0.023327	0.036108	0.002718	FastOpenCLLSystem-2	0.632991	0.618044	0.651355	0.007936	0.040757	0.020378	1.240184	FastOpenCLLSystem-4	0.583588	0.566006	0.615541	0.011783	0.044207	0.011052	2.308554	FastOpenCLLSystem-8	0.575762	0.551851	0.622793	0.014252	0.044808	0.005601	4.580298	FastOpenCLLSystem-16	0.561994	0.550328	0.584403	0.008024	0.045906	0.002869	8.966099	FastOpenCLLSystem-32	0.568902	0.549071	0.647692	0.020935	0.045348	0.001417	18.179051	FastOpenCLLSystem-64	0.567118	0.550345	0.611925	0.014141	0.045491	0.000711	36.269736	FastOpenCLLSystem-128	0.570581	0.543475	0.601959	0.012990	0.045215	0.000353	73.008543	FastOpenCLLSystem-256	0.562493	0.546835	0.597791	0.010924	0.045865	0.000179	143.972321	FastOpenCLLSystem-512	0.567576	0.542817	0.635419	0.016114	0.045454	0.000089	290.573310	FastOpenCLLSystem-1024	0.555005	0.543855	0.579229	0.006438	0.046484	0.000045	568.299166
16	|	normalized LSystem	0.048589	0.046333	0.061958	0.003307	FastOpenCLLSystem-2	1.008288	0.996398	1.048690	0.009699	0.048189	0.024095	1.967988	FastOpenCLLSystem-4	0.931374	0.915820	0.958809	0.008500	0.052169	0.013042	3.676908	FastOpenCLLSystem-8	0.965599	0.911110	1.199273	0.068681	0.050320	0.006290	7.676201	FastOpenCLLSystem-16	0.986832	0.898366	1.274340	0.089732	0.049237	0.003077	15.740718	FastOpenCLLSystem-32	0.916650	0.894794	0.945591	0.009488	0.053007	0.001656	29.284218	FastOpenCLLSystem-64	0.978357	0.893951	1.173639	0.074864	0.049664	0.000776	62.566268	FastOpenCLLSystem-128	0.982004	0.891179	1.274944	0.089159	0.049479	0.000387	125.647971	FastOpenCLLSystem-256	0.941419	0.893224	1.215389	0.060709	0.051612	0.000202	240.954724	FastOpenCLLSystem-512	0.963212	0.885944	1.287389	0.083499	0.050444	0.000099	493.116107	FastOpenCLLSystem-1024	0.974333	0.899037	1.289979	0.092505	0.049869	0.000049	997.668417
17	|	normalized LSystem	0.092660	0.092369	0.094592	0.000423	FastOpenCLLSystem-2	2.025218	2.012377	2.037937	0.004507	0.045753	0.022877	3.957775	FastOpenCLLSystem-4	1.793537	1.774313	1.816463	0.009114	0.051664	0.012916	7.081489	FastOpenCLLSystem-8	1.743501	1.729297	1.761426	0.006741	0.053146	0.006643	13.855347	FastOpenCLLSystem-16	1.719285	1.706995	1.730837	0.004910	0.053895	0.003368	27.415898	FastOpenCLLSystem-32	1.712940	1.695423	1.741703	0.008852	0.054094	0.001690	54.721410	FastOpenCLLSystem-64	1.708637	1.695605	1.721917	0.004990	0.054231	0.000847	109.260103	FastOpenCLLSystem-128	1.701244	1.679433	1.719156	0.006205	0.054466	0.000426	217.666563	FastOpenCLLSystem-256	1.707934	1.692550	1.737680	0.007890	0.054253	0.000212	437.138377	FastOpenCLLSystem-512	1.709631	1.687227	1.752768	0.011046	0.054199	0.000106	875.238218	FastOpenCLLSystem-1024	1.704772	1.692887	1.722413	0.006409	0.054354	0.000053	1745.593494
18	|	normalized LSystem	0.185432	0.185099	0.186375	0.000316	FastOpenCLLSystem-2	3.526374	3.511879	3.544419	0.006388	0.052584	0.026292	6.867316	FastOpenCLLSystem-4	3.248774	3.221583	3.348828	0.022592	0.057078	0.014269	12.809664	FastOpenCLLSystem-8	3.171923	3.158123	3.187550	0.006165	0.058461	0.007308	25.189951	FastOpenCLLSystem-16	3.163868	3.142213	3.279454	0.025534	0.058609	0.003663	50.436460	FastOpenCLLSystem-32	3.144365	3.132741	3.166662	0.007128	0.058973	0.001843	100.434251	FastOpenCLLSystem-64	3.171846	3.121401	3.269534	0.032883	0.058462	0.000913	202.812735	FastOpenCLLSystem-128	3.142190	3.120332	3.252942	0.024449	0.059014	0.000461	402.014853	FastOpenCLLSystem-256	3.143810	3.116179	3.217345	0.017306	0.058983	0.000230	804.629981	FastOpenCLLSystem-512	3.148348	3.113250	3.248944	0.023203	0.058898	0.000115	1611.768951	FastOpenCLLSystem-1024	3.132917	3.115153	3.160828	0.008611	0.059188	0.000058	3207.921908
19	|	normalized LSystem	0.364996	0.364434	0.367022	0.000502	FastOpenCLLSystem-2	7.827304	7.256412	8.284967	0.280989	0.046631	0.023316	15.289612	FastOpenCLLSystem-4	6.947492	6.420762	7.555257	0.243050	0.052536	0.013134	27.424974	FastOpenCLLSystem-8	6.458711	6.211824	7.153345	0.195309	0.056512	0.007064	51.304690	FastOpenCLLSystem-16	7.142336	6.728582	7.629001	0.183301	0.051103	0.003194	113.912381	FastOpenCLLSystem-32	7.147947	6.681048	7.686424	0.189481	0.051063	0.001596	228.369296	FastOpenCLLSystem-64	7.013093	6.704435	7.790005	0.197882	0.052045	0.000813	448.472928	FastOpenCLLSystem-128	6.949154	6.569972	7.585324	0.209976	0.052524	0.000410	889.126730	FastOpenCLLSystem-256	6.844690	6.396686	7.245948	0.162007	0.053325	0.000208	1751.875518	FastOpenCLLSystem-512	7.248878	6.918487	7.626439	0.143262	0.050352	0.000098	3711.060495	FastOpenCLLSystem-1024	7.104699	6.345737	7.645314	0.251258	0.051374	0.000050	7274.846754
20	|	normalized LSystem	0.751908	0.730452	0.956522	0.044097	FastOpenCLLSystem-2	13.164006	13.091201	13.270735	0.035328	0.057118	0.028559	25.576105	FastOpenCLLSystem-4	11.965292	11.927405	12.035121	0.021880	0.062841	0.015710	47.109262	FastOpenCLLSystem-8	11.744250	11.676899	11.874281	0.042684	0.064023	0.008003	93.202091	FastOpenCLLSystem-16	11.753303	11.704901	11.821304	0.026409	0.063974	0.003998	187.300948	FastOpenCLLSystem-32	11.619507	11.548363	11.687713	0.034658	0.064711	0.002022	371.072329	FastOpenCLLSystem-64	11.640255	11.541438	11.789601	0.050259	0.064595	0.001009	744.224437	FastOpenCLLSystem-128	11.665731	11.587422	11.728634	0.037181	0.064454	0.000504	1492.461612	FastOpenCLLSystem-256	11.633149	11.558334	11.760493	0.048720	0.064635	0.000252	2977.334158	FastOpenCLLSystem-512	11.645626	11.552580	11.739646	0.053730	0.064566	0.000126	5961.808475	FastOpenCLLSystem-1024	11.817938	11.719359	12.116903	0.077119	0.063624	0.000062	12100.816529
