%!PS-Adobe-3.0 EPSF-3.0
%%BoundingBox: 0 0 265.563 297.782
%%Title: L-system "fractal binary tree"
%%Creator: Python package l_system 01.00.00 --- Olivier Pirson --- http://www.opimedia.be/
%%EndComments
save

% Function
%%%%%%%%%%
/l {  % x1 y1 x0 y0
    moveto lineto stroke
} def

% Main
%%%%%%
-127.782 neg 0.000 neg translate
5.000 5.000 translate

0.000 10.000 0.000 0.000 l
0.000 20.000 0.000 10.000 l
0.000 30.000 0.000 20.000 l
0.000 40.000 0.000 30.000 l
0.000 50.000 0.000 40.000 l
0.000 60.000 0.000 50.000 l
0.000 70.000 0.000 60.000 l
0.000 80.000 0.000 70.000 l
0.000 90.000 0.000 80.000 l
0.000 100.000 0.000 90.000 l
0.000 110.000 0.000 100.000 l
0.000 120.000 0.000 110.000 l
0.000 130.000 0.000 120.000 l
0.000 140.000 0.000 130.000 l
0.000 150.000 0.000 140.000 l
0.000 160.000 0.000 150.000 l
-7.071 167.071 0.000 160.000 l
-14.142 174.142 -7.071 167.071 l
-21.213 181.213 -14.142 174.142 l
-28.284 188.284 -21.213 181.213 l
-35.355 195.355 -28.284 188.284 l
-42.426 202.426 -35.355 195.355 l
-49.497 209.497 -42.426 202.426 l
-56.569 216.569 -49.497 209.497 l
-66.569 216.569 -56.569 216.569 l
-76.569 216.569 -66.569 216.569 l
-86.569 216.569 -76.569 216.569 l
-96.569 216.569 -86.569 216.569 l
-103.640 209.497 -96.569 216.569 l
-110.711 202.426 -103.640 209.497 l
-110.711 192.426 -110.711 202.426 l
-103.640 185.355 -110.711 192.426 l
-117.782 185.355 -110.711 192.426 l
-120.711 202.426 -110.711 202.426 l
-127.782 195.355 -120.711 202.426 l
-127.782 209.497 -120.711 202.426 l
-103.640 223.640 -96.569 216.569 l
-110.711 230.711 -103.640 223.640 l
-120.711 230.711 -110.711 230.711 l
-127.782 223.640 -120.711 230.711 l
-127.782 237.782 -120.711 230.711 l
-110.711 240.711 -110.711 230.711 l
-117.782 247.782 -110.711 240.711 l
-103.640 247.782 -110.711 240.711 l
-56.569 226.569 -56.569 216.569 l
-56.569 236.569 -56.569 226.569 l
-56.569 246.569 -56.569 236.569 l
-56.569 256.569 -56.569 246.569 l
-63.640 263.640 -56.569 256.569 l
-70.711 270.711 -63.640 263.640 l
-80.711 270.711 -70.711 270.711 l
-87.782 263.640 -80.711 270.711 l
-87.782 277.782 -80.711 270.711 l
-70.711 280.711 -70.711 270.711 l
-77.782 287.782 -70.711 280.711 l
-63.640 287.782 -70.711 280.711 l
-49.497 263.640 -56.569 256.569 l
-42.426 270.711 -49.497 263.640 l
-42.426 280.711 -42.426 270.711 l
-49.497 287.782 -42.426 280.711 l
-35.355 287.782 -42.426 280.711 l
-32.426 270.711 -42.426 270.711 l
-25.355 277.782 -32.426 270.711 l
-25.355 263.640 -32.426 270.711 l
7.071 167.071 0.000 160.000 l
14.142 174.142 7.071 167.071 l
21.213 181.213 14.142 174.142 l
28.284 188.284 21.213 181.213 l
35.355 195.355 28.284 188.284 l
42.426 202.426 35.355 195.355 l
49.497 209.497 42.426 202.426 l
56.569 216.569 49.497 209.497 l
56.569 226.569 56.569 216.569 l
56.569 236.569 56.569 226.569 l
56.569 246.569 56.569 236.569 l
56.569 256.569 56.569 246.569 l
49.497 263.640 56.569 256.569 l
42.426 270.711 49.497 263.640 l
32.426 270.711 42.426 270.711 l
25.355 263.640 32.426 270.711 l
25.355 277.782 32.426 270.711 l
42.426 280.711 42.426 270.711 l
35.355 287.782 42.426 280.711 l
49.497 287.782 42.426 280.711 l
63.640 263.640 56.569 256.569 l
70.711 270.711 63.640 263.640 l
70.711 280.711 70.711 270.711 l
63.640 287.782 70.711 280.711 l
77.782 287.782 70.711 280.711 l
80.711 270.711 70.711 270.711 l
87.782 277.782 80.711 270.711 l
87.782 263.640 80.711 270.711 l
66.569 216.569 56.569 216.569 l
76.569 216.569 66.569 216.569 l
86.569 216.569 76.569 216.569 l
96.569 216.569 86.569 216.569 l
103.640 223.640 96.569 216.569 l
110.711 230.711 103.640 223.640 l
110.711 240.711 110.711 230.711 l
103.640 247.782 110.711 240.711 l
117.782 247.782 110.711 240.711 l
120.711 230.711 110.711 230.711 l
127.782 237.782 120.711 230.711 l
127.782 223.640 120.711 230.711 l
103.640 209.497 96.569 216.569 l
110.711 202.426 103.640 209.497 l
120.711 202.426 110.711 202.426 l
127.782 209.497 120.711 202.426 l
127.782 195.355 120.711 202.426 l
110.711 192.426 110.711 202.426 l
117.782 185.355 110.711 192.426 l
103.640 185.355 110.711 192.426 l

showpage

restore
%%EOF
