%!PS-Adobe-3.0 EPSF-3.0
%%BoundingBox: 0 0 24.142 27.071
%%Title: L-system "fractal binary tree"
%%Creator: Python package l_system 01.00.00 --- Olivier Pirson --- http://www.opimedia.be/
%%EndComments
save

% Function
%%%%%%%%%%
/l {  % x1 y1 x0 y0
    moveto lineto stroke
} def

% Main
%%%%%%
-7.071 neg 0.000 neg translate
5.000 5.000 translate

0.000 10.000 0.000 0.000 l
-7.071 17.071 0.000 10.000 l
7.071 17.071 0.000 10.000 l

showpage

restore
%%EOF
