%!PS-Adobe-3.0 EPSF-3.0
%%BoundingBox: 0 0 1038.112 1164.056
%%Title: L-system "fractal binary tree"
%%Creator: Python package l_system 01.00.00 --- Olivier Pirson --- http://www.opimedia.be/
%%EndComments
save

% Function
%%%%%%%%%%
/l {  % x1 y1 x0 y0
    moveto lineto stroke
} def

% Main
%%%%%%
-514.056 neg 0.000 neg translate
5.000 5.000 translate

0.000 10.000 0.000 0.000 l
0.000 20.000 0.000 10.000 l
0.000 30.000 0.000 20.000 l
0.000 40.000 0.000 30.000 l
0.000 50.000 0.000 40.000 l
0.000 60.000 0.000 50.000 l
0.000 70.000 0.000 60.000 l
0.000 80.000 0.000 70.000 l
0.000 90.000 0.000 80.000 l
0.000 100.000 0.000 90.000 l
0.000 110.000 0.000 100.000 l
0.000 120.000 0.000 110.000 l
0.000 130.000 0.000 120.000 l
0.000 140.000 0.000 130.000 l
0.000 150.000 0.000 140.000 l
0.000 160.000 0.000 150.000 l
0.000 170.000 0.000 160.000 l
0.000 180.000 0.000 170.000 l
0.000 190.000 0.000 180.000 l
0.000 200.000 0.000 190.000 l
0.000 210.000 0.000 200.000 l
0.000 220.000 0.000 210.000 l
0.000 230.000 0.000 220.000 l
0.000 240.000 0.000 230.000 l
0.000 250.000 0.000 240.000 l
0.000 260.000 0.000 250.000 l
0.000 270.000 0.000 260.000 l
0.000 280.000 0.000 270.000 l
0.000 290.000 0.000 280.000 l
0.000 300.000 0.000 290.000 l
0.000 310.000 0.000 300.000 l
0.000 320.000 0.000 310.000 l
0.000 330.000 0.000 320.000 l
0.000 340.000 0.000 330.000 l
0.000 350.000 0.000 340.000 l
0.000 360.000 0.000 350.000 l
0.000 370.000 0.000 360.000 l
0.000 380.000 0.000 370.000 l
0.000 390.000 0.000 380.000 l
0.000 400.000 0.000 390.000 l
0.000 410.000 0.000 400.000 l
0.000 420.000 0.000 410.000 l
0.000 430.000 0.000 420.000 l
0.000 440.000 0.000 430.000 l
0.000 450.000 0.000 440.000 l
0.000 460.000 0.000 450.000 l
0.000 470.000 0.000 460.000 l
0.000 480.000 0.000 470.000 l
0.000 490.000 0.000 480.000 l
0.000 500.000 0.000 490.000 l
0.000 510.000 0.000 500.000 l
0.000 520.000 0.000 510.000 l
0.000 530.000 0.000 520.000 l
0.000 540.000 0.000 530.000 l
0.000 550.000 0.000 540.000 l
0.000 560.000 0.000 550.000 l
0.000 570.000 0.000 560.000 l
0.000 580.000 0.000 570.000 l
0.000 590.000 0.000 580.000 l
0.000 600.000 0.000 590.000 l
0.000 610.000 0.000 600.000 l
0.000 620.000 0.000 610.000 l
0.000 630.000 0.000 620.000 l
0.000 640.000 0.000 630.000 l
-7.071 647.071 0.000 640.000 l
-14.142 654.142 -7.071 647.071 l
-21.213 661.213 -14.142 654.142 l
-28.284 668.284 -21.213 661.213 l
-35.355 675.355 -28.284 668.284 l
-42.426 682.426 -35.355 675.355 l
-49.497 689.497 -42.426 682.426 l
-56.569 696.569 -49.497 689.497 l
-63.640 703.640 -56.569 696.569 l
-70.711 710.711 -63.640 703.640 l
-77.782 717.782 -70.711 710.711 l
-84.853 724.853 -77.782 717.782 l
-91.924 731.924 -84.853 724.853 l
-98.995 738.995 -91.924 731.924 l
-106.066 746.066 -98.995 738.995 l
-113.137 753.137 -106.066 746.066 l
-120.208 760.208 -113.137 753.137 l
-127.279 767.279 -120.208 760.208 l
-134.350 774.350 -127.279 767.279 l
-141.421 781.421 -134.350 774.350 l
-148.492 788.492 -141.421 781.421 l
-155.563 795.563 -148.492 788.492 l
-162.635 802.635 -155.563 795.563 l
-169.706 809.706 -162.635 802.635 l
-176.777 816.777 -169.706 809.706 l
-183.848 823.848 -176.777 816.777 l
-190.919 830.919 -183.848 823.848 l
-197.990 837.990 -190.919 830.919 l
-205.061 845.061 -197.990 837.990 l
-212.132 852.132 -205.061 845.061 l
-219.203 859.203 -212.132 852.132 l
-226.274 866.274 -219.203 859.203 l
-236.274 866.274 -226.274 866.274 l
-246.274 866.274 -236.274 866.274 l
-256.274 866.274 -246.274 866.274 l
-266.274 866.274 -256.274 866.274 l
-276.274 866.274 -266.274 866.274 l
-286.274 866.274 -276.274 866.274 l
-296.274 866.274 -286.274 866.274 l
-306.274 866.274 -296.274 866.274 l
-316.274 866.274 -306.274 866.274 l
-326.274 866.274 -316.274 866.274 l
-336.274 866.274 -326.274 866.274 l
-346.274 866.274 -336.274 866.274 l
-356.274 866.274 -346.274 866.274 l
-366.274 866.274 -356.274 866.274 l
-376.274 866.274 -366.274 866.274 l
-386.274 866.274 -376.274 866.274 l
-393.345 859.203 -386.274 866.274 l
-400.416 852.132 -393.345 859.203 l
-407.487 845.061 -400.416 852.132 l
-414.558 837.990 -407.487 845.061 l
-421.630 830.919 -414.558 837.990 l
-428.701 823.848 -421.630 830.919 l
-435.772 816.777 -428.701 823.848 l
-442.843 809.706 -435.772 816.777 l
-442.843 799.706 -442.843 809.706 l
-442.843 789.706 -442.843 799.706 l
-442.843 779.706 -442.843 789.706 l
-442.843 769.706 -442.843 779.706 l
-435.772 762.635 -442.843 769.706 l
-428.701 755.563 -435.772 762.635 l
-418.701 755.563 -428.701 755.563 l
-411.630 762.635 -418.701 755.563 l
-411.630 748.492 -418.701 755.563 l
-428.701 745.563 -428.701 755.563 l
-421.630 738.492 -428.701 745.563 l
-435.772 738.492 -428.701 745.563 l
-449.914 762.635 -442.843 769.706 l
-456.985 755.563 -449.914 762.635 l
-456.985 745.563 -456.985 755.563 l
-449.914 738.492 -456.985 745.563 l
-464.056 738.492 -456.985 745.563 l
-466.985 755.563 -456.985 755.563 l
-474.056 748.492 -466.985 755.563 l
-474.056 762.635 -466.985 755.563 l
-452.843 809.706 -442.843 809.706 l
-462.843 809.706 -452.843 809.706 l
-472.843 809.706 -462.843 809.706 l
-482.843 809.706 -472.843 809.706 l
-489.914 802.635 -482.843 809.706 l
-496.985 795.563 -489.914 802.635 l
-496.985 785.563 -496.985 795.563 l
-489.914 778.492 -496.985 785.563 l
-504.056 778.492 -496.985 785.563 l
-506.985 795.563 -496.985 795.563 l
-514.056 788.492 -506.985 795.563 l
-514.056 802.635 -506.985 795.563 l
-489.914 816.777 -482.843 809.706 l
-496.985 823.848 -489.914 816.777 l
-506.985 823.848 -496.985 823.848 l
-514.056 816.777 -506.985 823.848 l
-514.056 830.919 -506.985 823.848 l
-496.985 833.848 -496.985 823.848 l
-504.056 840.919 -496.985 833.848 l
-489.914 840.919 -496.985 833.848 l
-393.345 873.345 -386.274 866.274 l
-400.416 880.416 -393.345 873.345 l
-407.487 887.487 -400.416 880.416 l
-414.558 894.558 -407.487 887.487 l
-421.630 901.630 -414.558 894.558 l
-428.701 908.701 -421.630 901.630 l
-435.772 915.772 -428.701 908.701 l
-442.843 922.843 -435.772 915.772 l
-452.843 922.843 -442.843 922.843 l
-462.843 922.843 -452.843 922.843 l
-472.843 922.843 -462.843 922.843 l
-482.843 922.843 -472.843 922.843 l
-489.914 915.772 -482.843 922.843 l
-496.985 908.701 -489.914 915.772 l
-496.985 898.701 -496.985 908.701 l
-489.914 891.630 -496.985 898.701 l
-504.056 891.630 -496.985 898.701 l
-506.985 908.701 -496.985 908.701 l
-514.056 901.630 -506.985 908.701 l
-514.056 915.772 -506.985 908.701 l
-489.914 929.914 -482.843 922.843 l
-496.985 936.985 -489.914 929.914 l
-506.985 936.985 -496.985 936.985 l
-514.056 929.914 -506.985 936.985 l
-514.056 944.056 -506.985 936.985 l
-496.985 946.985 -496.985 936.985 l
-504.056 954.056 -496.985 946.985 l
-489.914 954.056 -496.985 946.985 l
-442.843 932.843 -442.843 922.843 l
-442.843 942.843 -442.843 932.843 l
-442.843 952.843 -442.843 942.843 l
-442.843 962.843 -442.843 952.843 l
-449.914 969.914 -442.843 962.843 l
-456.985 976.985 -449.914 969.914 l
-466.985 976.985 -456.985 976.985 l
-474.056 969.914 -466.985 976.985 l
-474.056 984.056 -466.985 976.985 l
-456.985 986.985 -456.985 976.985 l
-464.056 994.056 -456.985 986.985 l
-449.914 994.056 -456.985 986.985 l
-435.772 969.914 -442.843 962.843 l
-428.701 976.985 -435.772 969.914 l
-428.701 986.985 -428.701 976.985 l
-435.772 994.056 -428.701 986.985 l
-421.630 994.056 -428.701 986.985 l
-418.701 976.985 -428.701 976.985 l
-411.630 984.056 -418.701 976.985 l
-411.630 969.914 -418.701 976.985 l
-226.274 876.274 -226.274 866.274 l
-226.274 886.274 -226.274 876.274 l
-226.274 896.274 -226.274 886.274 l
-226.274 906.274 -226.274 896.274 l
-226.274 916.274 -226.274 906.274 l
-226.274 926.274 -226.274 916.274 l
-226.274 936.274 -226.274 926.274 l
-226.274 946.274 -226.274 936.274 l
-226.274 956.274 -226.274 946.274 l
-226.274 966.274 -226.274 956.274 l
-226.274 976.274 -226.274 966.274 l
-226.274 986.274 -226.274 976.274 l
-226.274 996.274 -226.274 986.274 l
-226.274 1006.274 -226.274 996.274 l
-226.274 1016.274 -226.274 1006.274 l
-226.274 1026.274 -226.274 1016.274 l
-233.345 1033.345 -226.274 1026.274 l
-240.416 1040.416 -233.345 1033.345 l
-247.487 1047.487 -240.416 1040.416 l
-254.558 1054.558 -247.487 1047.487 l
-261.630 1061.630 -254.558 1054.558 l
-268.701 1068.701 -261.630 1061.630 l
-275.772 1075.772 -268.701 1068.701 l
-282.843 1082.843 -275.772 1075.772 l
-292.843 1082.843 -282.843 1082.843 l
-302.843 1082.843 -292.843 1082.843 l
-312.843 1082.843 -302.843 1082.843 l
-322.843 1082.843 -312.843 1082.843 l
-329.914 1075.772 -322.843 1082.843 l
-336.985 1068.701 -329.914 1075.772 l
-336.985 1058.701 -336.985 1068.701 l
-329.914 1051.630 -336.985 1058.701 l
-344.056 1051.630 -336.985 1058.701 l
-346.985 1068.701 -336.985 1068.701 l
-354.056 1061.630 -346.985 1068.701 l
-354.056 1075.772 -346.985 1068.701 l
-329.914 1089.914 -322.843 1082.843 l
-336.985 1096.985 -329.914 1089.914 l
-346.985 1096.985 -336.985 1096.985 l
-354.056 1089.914 -346.985 1096.985 l
-354.056 1104.056 -346.985 1096.985 l
-336.985 1106.985 -336.985 1096.985 l
-344.056 1114.056 -336.985 1106.985 l
-329.914 1114.056 -336.985 1106.985 l
-282.843 1092.843 -282.843 1082.843 l
-282.843 1102.843 -282.843 1092.843 l
-282.843 1112.843 -282.843 1102.843 l
-282.843 1122.843 -282.843 1112.843 l
-289.914 1129.914 -282.843 1122.843 l
-296.985 1136.985 -289.914 1129.914 l
-306.985 1136.985 -296.985 1136.985 l
-314.056 1129.914 -306.985 1136.985 l
-314.056 1144.056 -306.985 1136.985 l
-296.985 1146.985 -296.985 1136.985 l
-304.056 1154.056 -296.985 1146.985 l
-289.914 1154.056 -296.985 1146.985 l
-275.772 1129.914 -282.843 1122.843 l
-268.701 1136.985 -275.772 1129.914 l
-268.701 1146.985 -268.701 1136.985 l
-275.772 1154.056 -268.701 1146.985 l
-261.630 1154.056 -268.701 1146.985 l
-258.701 1136.985 -268.701 1136.985 l
-251.630 1144.056 -258.701 1136.985 l
-251.630 1129.914 -258.701 1136.985 l
-219.203 1033.345 -226.274 1026.274 l
-212.132 1040.416 -219.203 1033.345 l
-205.061 1047.487 -212.132 1040.416 l
-197.990 1054.558 -205.061 1047.487 l
-190.919 1061.630 -197.990 1054.558 l
-183.848 1068.701 -190.919 1061.630 l
-176.777 1075.772 -183.848 1068.701 l
-169.706 1082.843 -176.777 1075.772 l
-169.706 1092.843 -169.706 1082.843 l
-169.706 1102.843 -169.706 1092.843 l
-169.706 1112.843 -169.706 1102.843 l
-169.706 1122.843 -169.706 1112.843 l
-176.777 1129.914 -169.706 1122.843 l
-183.848 1136.985 -176.777 1129.914 l
-193.848 1136.985 -183.848 1136.985 l
-200.919 1129.914 -193.848 1136.985 l
-200.919 1144.056 -193.848 1136.985 l
-183.848 1146.985 -183.848 1136.985 l
-190.919 1154.056 -183.848 1146.985 l
-176.777 1154.056 -183.848 1146.985 l
-162.635 1129.914 -169.706 1122.843 l
-155.563 1136.985 -162.635 1129.914 l
-155.563 1146.985 -155.563 1136.985 l
-162.635 1154.056 -155.563 1146.985 l
-148.492 1154.056 -155.563 1146.985 l
-145.563 1136.985 -155.563 1136.985 l
-138.492 1144.056 -145.563 1136.985 l
-138.492 1129.914 -145.563 1136.985 l
-159.706 1082.843 -169.706 1082.843 l
-149.706 1082.843 -159.706 1082.843 l
-139.706 1082.843 -149.706 1082.843 l
-129.706 1082.843 -139.706 1082.843 l
-122.635 1089.914 -129.706 1082.843 l
-115.563 1096.985 -122.635 1089.914 l
-115.563 1106.985 -115.563 1096.985 l
-122.635 1114.056 -115.563 1106.985 l
-108.492 1114.056 -115.563 1106.985 l
-105.563 1096.985 -115.563 1096.985 l
-98.492 1104.056 -105.563 1096.985 l
-98.492 1089.914 -105.563 1096.985 l
-122.635 1075.772 -129.706 1082.843 l
-115.563 1068.701 -122.635 1075.772 l
-105.563 1068.701 -115.563 1068.701 l
-98.492 1075.772 -105.563 1068.701 l
-98.492 1061.630 -105.563 1068.701 l
-115.563 1058.701 -115.563 1068.701 l
-108.492 1051.630 -115.563 1058.701 l
-122.635 1051.630 -115.563 1058.701 l
7.071 647.071 0.000 640.000 l
14.142 654.142 7.071 647.071 l
21.213 661.213 14.142 654.142 l
28.284 668.284 21.213 661.213 l
35.355 675.355 28.284 668.284 l
42.426 682.426 35.355 675.355 l
49.497 689.497 42.426 682.426 l
56.569 696.569 49.497 689.497 l
63.640 703.640 56.569 696.569 l
70.711 710.711 63.640 703.640 l
77.782 717.782 70.711 710.711 l
84.853 724.853 77.782 717.782 l
91.924 731.924 84.853 724.853 l
98.995 738.995 91.924 731.924 l
106.066 746.066 98.995 738.995 l
113.137 753.137 106.066 746.066 l
120.208 760.208 113.137 753.137 l
127.279 767.279 120.208 760.208 l
134.350 774.350 127.279 767.279 l
141.421 781.421 134.350 774.350 l
148.492 788.492 141.421 781.421 l
155.563 795.563 148.492 788.492 l
162.635 802.635 155.563 795.563 l
169.706 809.706 162.635 802.635 l
176.777 816.777 169.706 809.706 l
183.848 823.848 176.777 816.777 l
190.919 830.919 183.848 823.848 l
197.990 837.990 190.919 830.919 l
205.061 845.061 197.990 837.990 l
212.132 852.132 205.061 845.061 l
219.203 859.203 212.132 852.132 l
226.274 866.274 219.203 859.203 l
226.274 876.274 226.274 866.274 l
226.274 886.274 226.274 876.274 l
226.274 896.274 226.274 886.274 l
226.274 906.274 226.274 896.274 l
226.274 916.274 226.274 906.274 l
226.274 926.274 226.274 916.274 l
226.274 936.274 226.274 926.274 l
226.274 946.274 226.274 936.274 l
226.274 956.274 226.274 946.274 l
226.274 966.274 226.274 956.274 l
226.274 976.274 226.274 966.274 l
226.274 986.274 226.274 976.274 l
226.274 996.274 226.274 986.274 l
226.274 1006.274 226.274 996.274 l
226.274 1016.274 226.274 1006.274 l
226.274 1026.274 226.274 1016.274 l
219.203 1033.345 226.274 1026.274 l
212.132 1040.416 219.203 1033.345 l
205.061 1047.487 212.132 1040.416 l
197.990 1054.558 205.061 1047.487 l
190.919 1061.630 197.990 1054.558 l
183.848 1068.701 190.919 1061.630 l
176.777 1075.772 183.848 1068.701 l
169.706 1082.843 176.777 1075.772 l
159.706 1082.843 169.706 1082.843 l
149.706 1082.843 159.706 1082.843 l
139.706 1082.843 149.706 1082.843 l
129.706 1082.843 139.706 1082.843 l
122.635 1075.772 129.706 1082.843 l
115.563 1068.701 122.635 1075.772 l
115.563 1058.701 115.563 1068.701 l
122.635 1051.630 115.563 1058.701 l
108.492 1051.630 115.563 1058.701 l
105.563 1068.701 115.563 1068.701 l
98.492 1061.630 105.563 1068.701 l
98.492 1075.772 105.563 1068.701 l
122.635 1089.914 129.706 1082.843 l
115.563 1096.985 122.635 1089.914 l
105.563 1096.985 115.563 1096.985 l
98.492 1089.914 105.563 1096.985 l
98.492 1104.056 105.563 1096.985 l
115.563 1106.985 115.563 1096.985 l
108.492 1114.056 115.563 1106.985 l
122.635 1114.056 115.563 1106.985 l
169.706 1092.843 169.706 1082.843 l
169.706 1102.843 169.706 1092.843 l
169.706 1112.843 169.706 1102.843 l
169.706 1122.843 169.706 1112.843 l
162.635 1129.914 169.706 1122.843 l
155.563 1136.985 162.635 1129.914 l
145.563 1136.985 155.563 1136.985 l
138.492 1129.914 145.563 1136.985 l
138.492 1144.056 145.563 1136.985 l
155.563 1146.985 155.563 1136.985 l
148.492 1154.056 155.563 1146.985 l
162.635 1154.056 155.563 1146.985 l
176.777 1129.914 169.706 1122.843 l
183.848 1136.985 176.777 1129.914 l
183.848 1146.985 183.848 1136.985 l
176.777 1154.056 183.848 1146.985 l
190.919 1154.056 183.848 1146.985 l
193.848 1136.985 183.848 1136.985 l
200.919 1144.056 193.848 1136.985 l
200.919 1129.914 193.848 1136.985 l
233.345 1033.345 226.274 1026.274 l
240.416 1040.416 233.345 1033.345 l
247.487 1047.487 240.416 1040.416 l
254.558 1054.558 247.487 1047.487 l
261.630 1061.630 254.558 1054.558 l
268.701 1068.701 261.630 1061.630 l
275.772 1075.772 268.701 1068.701 l
282.843 1082.843 275.772 1075.772 l
282.843 1092.843 282.843 1082.843 l
282.843 1102.843 282.843 1092.843 l
282.843 1112.843 282.843 1102.843 l
282.843 1122.843 282.843 1112.843 l
275.772 1129.914 282.843 1122.843 l
268.701 1136.985 275.772 1129.914 l
258.701 1136.985 268.701 1136.985 l
251.630 1129.914 258.701 1136.985 l
251.630 1144.056 258.701 1136.985 l
268.701 1146.985 268.701 1136.985 l
261.630 1154.056 268.701 1146.985 l
275.772 1154.056 268.701 1146.985 l
289.914 1129.914 282.843 1122.843 l
296.985 1136.985 289.914 1129.914 l
296.985 1146.985 296.985 1136.985 l
289.914 1154.056 296.985 1146.985 l
304.056 1154.056 296.985 1146.985 l
306.985 1136.985 296.985 1136.985 l
314.056 1144.056 306.985 1136.985 l
314.056 1129.914 306.985 1136.985 l
292.843 1082.843 282.843 1082.843 l
302.843 1082.843 292.843 1082.843 l
312.843 1082.843 302.843 1082.843 l
322.843 1082.843 312.843 1082.843 l
329.914 1089.914 322.843 1082.843 l
336.985 1096.985 329.914 1089.914 l
336.985 1106.985 336.985 1096.985 l
329.914 1114.056 336.985 1106.985 l
344.056 1114.056 336.985 1106.985 l
346.985 1096.985 336.985 1096.985 l
354.056 1104.056 346.985 1096.985 l
354.056 1089.914 346.985 1096.985 l
329.914 1075.772 322.843 1082.843 l
336.985 1068.701 329.914 1075.772 l
346.985 1068.701 336.985 1068.701 l
354.056 1075.772 346.985 1068.701 l
354.056 1061.630 346.985 1068.701 l
336.985 1058.701 336.985 1068.701 l
344.056 1051.630 336.985 1058.701 l
329.914 1051.630 336.985 1058.701 l
236.274 866.274 226.274 866.274 l
246.274 866.274 236.274 866.274 l
256.274 866.274 246.274 866.274 l
266.274 866.274 256.274 866.274 l
276.274 866.274 266.274 866.274 l
286.274 866.274 276.274 866.274 l
296.274 866.274 286.274 866.274 l
306.274 866.274 296.274 866.274 l
316.274 866.274 306.274 866.274 l
326.274 866.274 316.274 866.274 l
336.274 866.274 326.274 866.274 l
346.274 866.274 336.274 866.274 l
356.274 866.274 346.274 866.274 l
366.274 866.274 356.274 866.274 l
376.274 866.274 366.274 866.274 l
386.274 866.274 376.274 866.274 l
393.345 873.345 386.274 866.274 l
400.416 880.416 393.345 873.345 l
407.487 887.487 400.416 880.416 l
414.558 894.558 407.487 887.487 l
421.630 901.630 414.558 894.558 l
428.701 908.701 421.630 901.630 l
435.772 915.772 428.701 908.701 l
442.843 922.843 435.772 915.772 l
442.843 932.843 442.843 922.843 l
442.843 942.843 442.843 932.843 l
442.843 952.843 442.843 942.843 l
442.843 962.843 442.843 952.843 l
435.772 969.914 442.843 962.843 l
428.701 976.985 435.772 969.914 l
418.701 976.985 428.701 976.985 l
411.630 969.914 418.701 976.985 l
411.630 984.056 418.701 976.985 l
428.701 986.985 428.701 976.985 l
421.630 994.056 428.701 986.985 l
435.772 994.056 428.701 986.985 l
449.914 969.914 442.843 962.843 l
456.985 976.985 449.914 969.914 l
456.985 986.985 456.985 976.985 l
449.914 994.056 456.985 986.985 l
464.056 994.056 456.985 986.985 l
466.985 976.985 456.985 976.985 l
474.056 984.056 466.985 976.985 l
474.056 969.914 466.985 976.985 l
452.843 922.843 442.843 922.843 l
462.843 922.843 452.843 922.843 l
472.843 922.843 462.843 922.843 l
482.843 922.843 472.843 922.843 l
489.914 929.914 482.843 922.843 l
496.985 936.985 489.914 929.914 l
496.985 946.985 496.985 936.985 l
489.914 954.056 496.985 946.985 l
504.056 954.056 496.985 946.985 l
506.985 936.985 496.985 936.985 l
514.056 944.056 506.985 936.985 l
514.056 929.914 506.985 936.985 l
489.914 915.772 482.843 922.843 l
496.985 908.701 489.914 915.772 l
506.985 908.701 496.985 908.701 l
514.056 915.772 506.985 908.701 l
514.056 901.630 506.985 908.701 l
496.985 898.701 496.985 908.701 l
504.056 891.630 496.985 898.701 l
489.914 891.630 496.985 898.701 l
393.345 859.203 386.274 866.274 l
400.416 852.132 393.345 859.203 l
407.487 845.061 400.416 852.132 l
414.558 837.990 407.487 845.061 l
421.630 830.919 414.558 837.990 l
428.701 823.848 421.630 830.919 l
435.772 816.777 428.701 823.848 l
442.843 809.706 435.772 816.777 l
452.843 809.706 442.843 809.706 l
462.843 809.706 452.843 809.706 l
472.843 809.706 462.843 809.706 l
482.843 809.706 472.843 809.706 l
489.914 816.777 482.843 809.706 l
496.985 823.848 489.914 816.777 l
496.985 833.848 496.985 823.848 l
489.914 840.919 496.985 833.848 l
504.056 840.919 496.985 833.848 l
506.985 823.848 496.985 823.848 l
514.056 830.919 506.985 823.848 l
514.056 816.777 506.985 823.848 l
489.914 802.635 482.843 809.706 l
496.985 795.563 489.914 802.635 l
506.985 795.563 496.985 795.563 l
514.056 802.635 506.985 795.563 l
514.056 788.492 506.985 795.563 l
496.985 785.563 496.985 795.563 l
504.056 778.492 496.985 785.563 l
489.914 778.492 496.985 785.563 l
442.843 799.706 442.843 809.706 l
442.843 789.706 442.843 799.706 l
442.843 779.706 442.843 789.706 l
442.843 769.706 442.843 779.706 l
449.914 762.635 442.843 769.706 l
456.985 755.563 449.914 762.635 l
466.985 755.563 456.985 755.563 l
474.056 762.635 466.985 755.563 l
474.056 748.492 466.985 755.563 l
456.985 745.563 456.985 755.563 l
464.056 738.492 456.985 745.563 l
449.914 738.492 456.985 745.563 l
435.772 762.635 442.843 769.706 l
428.701 755.563 435.772 762.635 l
428.701 745.563 428.701 755.563 l
435.772 738.492 428.701 745.563 l
421.630 738.492 428.701 745.563 l
418.701 755.563 428.701 755.563 l
411.630 748.492 418.701 755.563 l
411.630 762.635 418.701 755.563 l

showpage

restore
%%EOF
