%!PS-Adobe-3.0 EPSF-3.0
%%BoundingBox: 0 0 72.426 81.213
%%Title: L-system "fractal binary tree"
%%Creator: Python package l_system 01.00.00 --- Olivier Pirson --- http://www.opimedia.be/
%%EndComments
save

% Function
%%%%%%%%%%
/l {  % x1 y1 x0 y0
    moveto lineto stroke
} def

% Main
%%%%%%
-31.213 neg 0.000 neg translate
5.000 5.000 translate

0.000 10.000 0.000 0.000 l
0.000 20.000 0.000 10.000 l
0.000 30.000 0.000 20.000 l
0.000 40.000 0.000 30.000 l
-7.071 47.071 0.000 40.000 l
-14.142 54.142 -7.071 47.071 l
-24.142 54.142 -14.142 54.142 l
-31.213 47.071 -24.142 54.142 l
-31.213 61.213 -24.142 54.142 l
-14.142 64.142 -14.142 54.142 l
-21.213 71.213 -14.142 64.142 l
-7.071 71.213 -14.142 64.142 l
7.071 47.071 0.000 40.000 l
14.142 54.142 7.071 47.071 l
14.142 64.142 14.142 54.142 l
7.071 71.213 14.142 64.142 l
21.213 71.213 14.142 64.142 l
24.142 54.142 14.142 54.142 l
31.213 61.213 24.142 54.142 l
31.213 47.071 24.142 54.142 l

showpage

restore
%%EOF
