%!PS-Adobe-3.0 EPSF-3.0
%%BoundingBox: 0 0 140.711 155.355
%%Title: L-system "fractal binary tree"
%%Creator: Python package l_system 01.00.00 --- Olivier Pirson --- http://www.opimedia.be/
%%EndComments
save

% Function
%%%%%%%%%%
/l {  % x1 y1 x0 y0
    moveto lineto stroke
} def

% Main
%%%%%%
-65.355 neg 0.000 neg translate
5.000 5.000 translate

0.000 10.000 0.000 0.000 l
0.000 20.000 0.000 10.000 l
0.000 30.000 0.000 20.000 l
0.000 40.000 0.000 30.000 l
0.000 50.000 0.000 40.000 l
0.000 60.000 0.000 50.000 l
0.000 70.000 0.000 60.000 l
0.000 80.000 0.000 70.000 l
-7.071 87.071 0.000 80.000 l
-14.142 94.142 -7.071 87.071 l
-21.213 101.213 -14.142 94.142 l
-28.284 108.284 -21.213 101.213 l
-38.284 108.284 -28.284 108.284 l
-48.284 108.284 -38.284 108.284 l
-55.355 101.213 -48.284 108.284 l
-55.355 91.213 -55.355 101.213 l
-65.355 101.213 -55.355 101.213 l
-55.355 115.355 -48.284 108.284 l
-65.355 115.355 -55.355 115.355 l
-55.355 125.355 -55.355 115.355 l
-28.284 118.284 -28.284 108.284 l
-28.284 128.284 -28.284 118.284 l
-35.355 135.355 -28.284 128.284 l
-45.355 135.355 -35.355 135.355 l
-35.355 145.355 -35.355 135.355 l
-21.213 135.355 -28.284 128.284 l
-21.213 145.355 -21.213 135.355 l
-11.213 135.355 -21.213 135.355 l
7.071 87.071 0.000 80.000 l
14.142 94.142 7.071 87.071 l
21.213 101.213 14.142 94.142 l
28.284 108.284 21.213 101.213 l
28.284 118.284 28.284 108.284 l
28.284 128.284 28.284 118.284 l
21.213 135.355 28.284 128.284 l
11.213 135.355 21.213 135.355 l
21.213 145.355 21.213 135.355 l
35.355 135.355 28.284 128.284 l
35.355 145.355 35.355 135.355 l
45.355 135.355 35.355 135.355 l
38.284 108.284 28.284 108.284 l
48.284 108.284 38.284 108.284 l
55.355 115.355 48.284 108.284 l
55.355 125.355 55.355 115.355 l
65.355 115.355 55.355 115.355 l
55.355 101.213 48.284 108.284 l
65.355 101.213 55.355 101.213 l
55.355 91.213 55.355 101.213 l

showpage

restore
%%EOF
