%!PS-Adobe-3.0 EPSF-3.0
%%BoundingBox: 0 0 280.000 140.000
%%Title: L-system "Koch curve"
%%Creator: Python package l_system 01.00.00 --- Olivier Pirson --- http://www.opimedia.be/
%%EndComments
save

% Function
%%%%%%%%%%
/l {  % x1 y1 x0 y0
    moveto lineto stroke
} def

% Main
%%%%%%
0.000 neg 0.000 neg translate
5.000 5.000 translate

10.000 0.000 0.000 0.000 l
10.000 10.000 10.000 0.000 l
20.000 10.000 10.000 10.000 l
20.000 0.000 20.000 10.000 l
30.000 0.000 20.000 0.000 l
30.000 10.000 30.000 0.000 l
20.000 10.000 30.000 10.000 l
20.000 20.000 20.000 10.000 l
30.000 20.000 20.000 20.000 l
30.000 30.000 30.000 20.000 l
40.000 30.000 30.000 30.000 l
40.000 40.000 40.000 30.000 l
50.000 40.000 40.000 40.000 l
50.000 30.000 50.000 40.000 l
60.000 30.000 50.000 30.000 l
60.000 20.000 60.000 30.000 l
70.000 20.000 60.000 20.000 l
70.000 10.000 70.000 20.000 l
60.000 10.000 70.000 10.000 l
60.000 0.000 60.000 10.000 l
70.000 0.000 60.000 0.000 l
70.000 10.000 70.000 0.000 l
80.000 10.000 70.000 10.000 l
80.000 0.000 80.000 10.000 l
90.000 0.000 80.000 0.000 l
90.000 10.000 90.000 0.000 l
80.000 10.000 90.000 10.000 l
80.000 20.000 80.000 10.000 l
90.000 20.000 80.000 20.000 l
90.000 30.000 90.000 20.000 l
80.000 30.000 90.000 30.000 l
80.000 20.000 80.000 30.000 l
70.000 20.000 80.000 20.000 l
70.000 30.000 70.000 20.000 l
60.000 30.000 70.000 30.000 l
60.000 40.000 60.000 30.000 l
50.000 40.000 60.000 40.000 l
50.000 50.000 50.000 40.000 l
60.000 50.000 50.000 50.000 l
60.000 60.000 60.000 50.000 l
70.000 60.000 60.000 60.000 l
70.000 70.000 70.000 60.000 l
80.000 70.000 70.000 70.000 l
80.000 60.000 80.000 70.000 l
90.000 60.000 80.000 60.000 l
90.000 70.000 90.000 60.000 l
80.000 70.000 90.000 70.000 l
80.000 80.000 80.000 70.000 l
90.000 80.000 80.000 80.000 l
90.000 90.000 90.000 80.000 l
100.000 90.000 90.000 90.000 l
100.000 100.000 100.000 90.000 l
110.000 100.000 100.000 100.000 l
110.000 90.000 110.000 100.000 l
120.000 90.000 110.000 90.000 l
120.000 100.000 120.000 90.000 l
110.000 100.000 120.000 100.000 l
110.000 110.000 110.000 100.000 l
120.000 110.000 110.000 110.000 l
120.000 120.000 120.000 110.000 l
130.000 120.000 120.000 120.000 l
130.000 130.000 130.000 120.000 l
140.000 130.000 130.000 130.000 l
140.000 120.000 140.000 130.000 l
150.000 120.000 140.000 120.000 l
150.000 110.000 150.000 120.000 l
160.000 110.000 150.000 110.000 l
160.000 100.000 160.000 110.000 l
150.000 100.000 160.000 100.000 l
150.000 90.000 150.000 100.000 l
160.000 90.000 150.000 90.000 l
160.000 100.000 160.000 90.000 l
170.000 100.000 160.000 100.000 l
170.000 90.000 170.000 100.000 l
180.000 90.000 170.000 90.000 l
180.000 80.000 180.000 90.000 l
190.000 80.000 180.000 80.000 l
190.000 70.000 190.000 80.000 l
180.000 70.000 190.000 70.000 l
180.000 60.000 180.000 70.000 l
190.000 60.000 180.000 60.000 l
190.000 70.000 190.000 60.000 l
200.000 70.000 190.000 70.000 l
200.000 60.000 200.000 70.000 l
210.000 60.000 200.000 60.000 l
210.000 50.000 210.000 60.000 l
220.000 50.000 210.000 50.000 l
220.000 40.000 220.000 50.000 l
210.000 40.000 220.000 40.000 l
210.000 30.000 210.000 40.000 l
200.000 30.000 210.000 30.000 l
200.000 20.000 200.000 30.000 l
190.000 20.000 200.000 20.000 l
190.000 30.000 190.000 20.000 l
180.000 30.000 190.000 30.000 l
180.000 20.000 180.000 30.000 l
190.000 20.000 180.000 20.000 l
190.000 10.000 190.000 20.000 l
180.000 10.000 190.000 10.000 l
180.000 0.000 180.000 10.000 l
190.000 0.000 180.000 0.000 l
190.000 10.000 190.000 0.000 l
200.000 10.000 190.000 10.000 l
200.000 0.000 200.000 10.000 l
210.000 0.000 200.000 0.000 l
210.000 10.000 210.000 0.000 l
200.000 10.000 210.000 10.000 l
200.000 20.000 200.000 10.000 l
210.000 20.000 200.000 20.000 l
210.000 30.000 210.000 20.000 l
220.000 30.000 210.000 30.000 l
220.000 40.000 220.000 30.000 l
230.000 40.000 220.000 40.000 l
230.000 30.000 230.000 40.000 l
240.000 30.000 230.000 30.000 l
240.000 20.000 240.000 30.000 l
250.000 20.000 240.000 20.000 l
250.000 10.000 250.000 20.000 l
240.000 10.000 250.000 10.000 l
240.000 0.000 240.000 10.000 l
250.000 0.000 240.000 0.000 l
250.000 10.000 250.000 0.000 l
260.000 10.000 250.000 10.000 l
260.000 0.000 260.000 10.000 l
270.000 0.000 260.000 0.000 l

showpage

restore
%%EOF
