%!PS-Adobe-3.0 EPSF-3.0
%%BoundingBox: 0 0 40.000 20.000
%%Title: L-system "Koch curve"
%%Creator: Python package l_system 01.00.00 --- Olivier Pirson --- http://www.opimedia.be/
%%EndComments
save

% Function
%%%%%%%%%%
/l {  % x1 y1 x0 y0
    moveto lineto stroke
} def

% Main
%%%%%%
0.000 neg 0.000 neg translate
5.000 5.000 translate

10.000 0.000 0.000 0.000 l
10.000 10.000 10.000 0.000 l
20.000 10.000 10.000 10.000 l
20.000 0.000 20.000 10.000 l
30.000 0.000 20.000 0.000 l

showpage

restore
%%EOF
