%!PS-Adobe-3.0 EPSF-3.0
%%BoundingBox: 0 0 100.000 50.000
%%Title: L-system "Koch curve"
%%Creator: Python package l_system 01.00.00 --- Olivier Pirson --- http://www.opimedia.be/
%%EndComments
save

% Function
%%%%%%%%%%
/l {  % x1 y1 x0 y0
    moveto lineto stroke
} def

% Main
%%%%%%
0.000 neg 0.000 neg translate
5.000 5.000 translate

10.000 0.000 0.000 0.000 l
10.000 10.000 10.000 0.000 l
20.000 10.000 10.000 10.000 l
20.000 0.000 20.000 10.000 l
30.000 0.000 20.000 0.000 l
30.000 10.000 30.000 0.000 l
20.000 10.000 30.000 10.000 l
20.000 20.000 20.000 10.000 l
30.000 20.000 20.000 20.000 l
30.000 30.000 30.000 20.000 l
40.000 30.000 30.000 30.000 l
40.000 40.000 40.000 30.000 l
50.000 40.000 40.000 40.000 l
50.000 30.000 50.000 40.000 l
60.000 30.000 50.000 30.000 l
60.000 20.000 60.000 30.000 l
70.000 20.000 60.000 20.000 l
70.000 10.000 70.000 20.000 l
60.000 10.000 70.000 10.000 l
60.000 0.000 60.000 10.000 l
70.000 0.000 60.000 0.000 l
70.000 10.000 70.000 0.000 l
80.000 10.000 70.000 10.000 l
80.000 0.000 80.000 10.000 l
90.000 0.000 80.000 0.000 l

showpage

restore
%%EOF
