%!PS-Adobe-3.0 EPSF-3.0
%%BoundingBox: 0 0 40.000 44.641
%%Title: L-system "Koch snowflake"
%%Creator: Python package l_system 01.00.00 --- Olivier Pirson --- http://www.opimedia.be/
%%EndComments
save

% Function
%%%%%%%%%%
/l {  % x1 y1 x0 y0
    moveto lineto stroke
} def

% Main
%%%%%%
-0.000 neg -25.981 neg translate
5.000 5.000 translate

10.000 0.000 0.000 0.000 l
15.000 8.660 10.000 0.000 l
20.000 0.000 15.000 8.660 l
30.000 0.000 20.000 0.000 l
25.000 -8.660 30.000 0.000 l
30.000 -17.321 25.000 -8.660 l
20.000 -17.321 30.000 -17.321 l
15.000 -25.981 20.000 -17.321 l
10.000 -17.321 15.000 -25.981 l
-0.000 -17.321 10.000 -17.321 l
5.000 -8.660 -0.000 -17.321 l
-0.000 0.000 5.000 -8.660 l

showpage

restore
%%EOF
