%!PS-Adobe-3.0 EPSF-3.0
%%BoundingBox: 0 0 266.000 217.846
%%Title: L-system "Sierpinski arrowhead curve"
%%Creator: Python package l_system 01.00.00 --- Olivier Pirson --- http://www.opimedia.be/
%%EndComments
save

% Function
%%%%%%%%%%
/l {  % x1 y1 x0 y0
    moveto lineto stroke
} def

% Main
%%%%%%
0.000 neg 0.000 neg translate
5.000 5.000 translate

16.000 0.000 0.000 0.000 l
24.000 13.856 16.000 0.000 l
16.000 27.713 24.000 13.856 l
24.000 41.569 16.000 27.713 l
40.000 41.569 24.000 41.569 l
48.000 27.713 40.000 41.569 l
40.000 13.856 48.000 27.713 l
48.000 0.000 40.000 13.856 l
64.000 0.000 48.000 0.000 l
72.000 13.856 64.000 0.000 l
88.000 13.856 72.000 13.856 l
96.000 0.000 88.000 13.856 l
112.000 0.000 96.000 0.000 l
120.000 13.856 112.000 0.000 l
112.000 27.713 120.000 13.856 l
96.000 27.713 112.000 27.713 l
88.000 41.569 96.000 27.713 l
96.000 55.426 88.000 41.569 l
88.000 69.282 96.000 55.426 l
72.000 69.282 88.000 69.282 l
64.000 55.426 72.000 69.282 l
48.000 55.426 64.000 55.426 l
40.000 69.282 48.000 55.426 l
48.000 83.138 40.000 69.282 l
64.000 83.138 48.000 83.138 l
72.000 96.995 64.000 83.138 l
64.000 110.851 72.000 96.995 l
72.000 124.708 64.000 110.851 l
88.000 124.708 72.000 124.708 l
96.000 110.851 88.000 124.708 l
112.000 110.851 96.000 110.851 l
120.000 124.708 112.000 110.851 l
112.000 138.564 120.000 124.708 l
96.000 138.564 112.000 138.564 l
88.000 152.420 96.000 138.564 l
96.000 166.277 88.000 152.420 l
112.000 166.277 96.000 166.277 l
120.000 180.133 112.000 166.277 l
112.000 193.990 120.000 180.133 l
120.000 207.846 112.000 193.990 l
136.000 207.846 120.000 207.846 l
144.000 193.990 136.000 207.846 l
136.000 180.133 144.000 193.990 l
144.000 166.277 136.000 180.133 l
160.000 166.277 144.000 166.277 l
168.000 152.420 160.000 166.277 l
160.000 138.564 168.000 152.420 l
144.000 138.564 160.000 138.564 l
136.000 124.708 144.000 138.564 l
144.000 110.851 136.000 124.708 l
160.000 110.851 144.000 110.851 l
168.000 124.708 160.000 110.851 l
184.000 124.708 168.000 124.708 l
192.000 110.851 184.000 124.708 l
184.000 96.995 192.000 110.851 l
192.000 83.138 184.000 96.995 l
208.000 83.138 192.000 83.138 l
216.000 69.282 208.000 83.138 l
208.000 55.426 216.000 69.282 l
192.000 55.426 208.000 55.426 l
184.000 69.282 192.000 55.426 l
168.000 69.282 184.000 69.282 l
160.000 55.426 168.000 69.282 l
168.000 41.569 160.000 55.426 l
160.000 27.713 168.000 41.569 l
144.000 27.713 160.000 27.713 l
136.000 13.856 144.000 27.713 l
144.000 0.000 136.000 13.856 l
160.000 0.000 144.000 0.000 l
168.000 13.856 160.000 0.000 l
184.000 13.856 168.000 13.856 l
192.000 0.000 184.000 13.856 l
208.000 0.000 192.000 0.000 l
216.000 13.856 208.000 0.000 l
208.000 27.713 216.000 13.856 l
216.000 41.569 208.000 27.713 l
232.000 41.569 216.000 41.569 l
240.000 27.713 232.000 41.569 l
232.000 13.856 240.000 27.713 l
240.000 0.000 232.000 13.856 l
256.000 0.000 240.000 0.000 l

showpage

restore
%%EOF
