%!PS-Adobe-3.0 EPSF-3.0
%%BoundingBox: 0 0 231.703 266.000
%%Title: L-system "Sierpinski triangle"
%%Creator: Python package l_system 01.00.00 --- Olivier Pirson --- http://www.opimedia.be/
%%EndComments
save

% Function
%%%%%%%%%%
/l {  % x1 y1 x0 y0
    moveto lineto stroke
} def

% Main
%%%%%%
-0.000 neg -0.000 neg translate
5.000 5.000 translate

0.000 16.000 0.000 0.000 l
13.856 8.000 0.000 16.000 l
13.856 24.000 13.856 8.000 l
0.000 16.000 13.856 24.000 l
0.000 32.000 0.000 16.000 l
13.856 24.000 0.000 32.000 l
27.713 16.000 13.856 24.000 l
27.713 32.000 27.713 16.000 l
41.569 24.000 27.713 32.000 l
41.569 40.000 41.569 24.000 l
27.713 32.000 41.569 40.000 l
27.713 48.000 27.713 32.000 l
13.856 40.000 27.713 48.000 l
-0.000 32.000 13.856 40.000 l
-0.000 48.000 -0.000 32.000 l
13.856 40.000 -0.000 48.000 l
13.856 56.000 13.856 40.000 l
-0.000 48.000 13.856 56.000 l
-0.000 64.000 -0.000 48.000 l
13.856 56.000 -0.000 64.000 l
27.713 48.000 13.856 56.000 l
41.569 40.000 27.713 48.000 l
55.426 32.000 41.569 40.000 l
55.426 48.000 55.426 32.000 l
69.282 40.000 55.426 48.000 l
69.282 56.000 69.282 40.000 l
55.426 48.000 69.282 56.000 l
55.426 64.000 55.426 48.000 l
69.282 56.000 55.426 64.000 l
83.138 48.000 69.282 56.000 l
83.138 64.000 83.138 48.000 l
96.995 56.000 83.138 64.000 l
96.995 72.000 96.995 56.000 l
83.138 64.000 96.995 72.000 l
83.138 80.000 83.138 64.000 l
69.282 72.000 83.138 80.000 l
55.426 64.000 69.282 72.000 l
55.426 80.000 55.426 64.000 l
69.282 72.000 55.426 80.000 l
69.282 88.000 69.282 72.000 l
55.426 80.000 69.282 88.000 l
55.426 96.000 55.426 80.000 l
41.569 88.000 55.426 96.000 l
27.713 80.000 41.569 88.000 l
13.856 72.000 27.713 80.000 l
-0.000 64.000 13.856 72.000 l
-0.000 80.000 -0.000 64.000 l
13.856 72.000 -0.000 80.000 l
13.856 88.000 13.856 72.000 l
-0.000 80.000 13.856 88.000 l
-0.000 96.000 -0.000 80.000 l
13.856 88.000 -0.000 96.000 l
27.713 80.000 13.856 88.000 l
27.713 96.000 27.713 80.000 l
41.569 88.000 27.713 96.000 l
41.569 104.000 41.569 88.000 l
27.713 96.000 41.569 104.000 l
27.713 112.000 27.713 96.000 l
13.856 104.000 27.713 112.000 l
-0.000 96.000 13.856 104.000 l
-0.000 112.000 -0.000 96.000 l
13.856 104.000 -0.000 112.000 l
13.856 120.000 13.856 104.000 l
-0.000 112.000 13.856 120.000 l
-0.000 128.000 -0.000 112.000 l
13.856 120.000 -0.000 128.000 l
27.713 112.000 13.856 120.000 l
41.569 104.000 27.713 112.000 l
55.426 96.000 41.569 104.000 l
69.282 88.000 55.426 96.000 l
83.138 80.000 69.282 88.000 l
96.995 72.000 83.138 80.000 l
110.851 64.000 96.995 72.000 l
110.851 80.000 110.851 64.000 l
124.708 72.000 110.851 80.000 l
124.708 88.000 124.708 72.000 l
110.851 80.000 124.708 88.000 l
110.851 96.000 110.851 80.000 l
124.708 88.000 110.851 96.000 l
138.564 80.000 124.708 88.000 l
138.564 96.000 138.564 80.000 l
152.420 88.000 138.564 96.000 l
152.420 104.000 152.420 88.000 l
138.564 96.000 152.420 104.000 l
138.564 112.000 138.564 96.000 l
124.708 104.000 138.564 112.000 l
110.851 96.000 124.708 104.000 l
110.851 112.000 110.851 96.000 l
124.708 104.000 110.851 112.000 l
124.708 120.000 124.708 104.000 l
110.851 112.000 124.708 120.000 l
110.851 128.000 110.851 112.000 l
124.708 120.000 110.851 128.000 l
138.564 112.000 124.708 120.000 l
152.420 104.000 138.564 112.000 l
166.277 96.000 152.420 104.000 l
166.277 112.000 166.277 96.000 l
180.133 104.000 166.277 112.000 l
180.133 120.000 180.133 104.000 l
166.277 112.000 180.133 120.000 l
166.277 128.000 166.277 112.000 l
180.133 120.000 166.277 128.000 l
193.990 112.000 180.133 120.000 l
193.990 128.000 193.990 112.000 l
207.846 120.000 193.990 128.000 l
207.846 136.000 207.846 120.000 l
193.990 128.000 207.846 136.000 l
193.990 144.000 193.990 128.000 l
180.133 136.000 193.990 144.000 l
166.277 128.000 180.133 136.000 l
166.277 144.000 166.277 128.000 l
180.133 136.000 166.277 144.000 l
180.133 152.000 180.133 136.000 l
166.277 144.000 180.133 152.000 l
166.277 160.000 166.277 144.000 l
152.420 152.000 166.277 160.000 l
138.564 144.000 152.420 152.000 l
124.708 136.000 138.564 144.000 l
110.851 128.000 124.708 136.000 l
110.851 144.000 110.851 128.000 l
124.708 136.000 110.851 144.000 l
124.708 152.000 124.708 136.000 l
110.851 144.000 124.708 152.000 l
110.851 160.000 110.851 144.000 l
124.708 152.000 110.851 160.000 l
138.564 144.000 124.708 152.000 l
138.564 160.000 138.564 144.000 l
152.420 152.000 138.564 160.000 l
152.420 168.000 152.420 152.000 l
138.564 160.000 152.420 168.000 l
138.564 176.000 138.564 160.000 l
124.708 168.000 138.564 176.000 l
110.851 160.000 124.708 168.000 l
110.851 176.000 110.851 160.000 l
124.708 168.000 110.851 176.000 l
124.708 184.000 124.708 168.000 l
110.851 176.000 124.708 184.000 l
110.851 192.000 110.851 176.000 l
96.995 184.000 110.851 192.000 l
83.138 176.000 96.995 184.000 l
69.282 168.000 83.138 176.000 l
55.426 160.000 69.282 168.000 l
41.569 152.000 55.426 160.000 l
27.713 144.000 41.569 152.000 l
13.856 136.000 27.713 144.000 l
-0.000 128.000 13.856 136.000 l
-0.000 144.000 -0.000 128.000 l
13.856 136.000 -0.000 144.000 l
13.856 152.000 13.856 136.000 l
-0.000 144.000 13.856 152.000 l
-0.000 160.000 -0.000 144.000 l
13.856 152.000 -0.000 160.000 l
27.713 144.000 13.856 152.000 l
27.713 160.000 27.713 144.000 l
41.569 152.000 27.713 160.000 l
41.569 168.000 41.569 152.000 l
27.713 160.000 41.569 168.000 l
27.713 176.000 27.713 160.000 l
13.856 168.000 27.713 176.000 l
-0.000 160.000 13.856 168.000 l
-0.000 176.000 -0.000 160.000 l
13.856 168.000 -0.000 176.000 l
13.856 184.000 13.856 168.000 l
-0.000 176.000 13.856 184.000 l
-0.000 192.000 -0.000 176.000 l
13.856 184.000 -0.000 192.000 l
27.713 176.000 13.856 184.000 l
41.569 168.000 27.713 176.000 l
55.426 160.000 41.569 168.000 l
55.426 176.000 55.426 160.000 l
69.282 168.000 55.426 176.000 l
69.282 184.000 69.282 168.000 l
55.426 176.000 69.282 184.000 l
55.426 192.000 55.426 176.000 l
69.282 184.000 55.426 192.000 l
83.138 176.000 69.282 184.000 l
83.138 192.000 83.138 176.000 l
96.995 184.000 83.138 192.000 l
96.995 200.000 96.995 184.000 l
83.138 192.000 96.995 200.000 l
83.138 208.000 83.138 192.000 l
69.282 200.000 83.138 208.000 l
55.426 192.000 69.282 200.000 l
55.426 208.000 55.426 192.000 l
69.282 200.000 55.426 208.000 l
69.282 216.000 69.282 200.000 l
55.426 208.000 69.282 216.000 l
55.426 224.000 55.426 208.000 l
41.569 216.000 55.426 224.000 l
27.713 208.000 41.569 216.000 l
13.856 200.000 27.713 208.000 l
-0.000 192.000 13.856 200.000 l
-0.000 208.000 -0.000 192.000 l
13.856 200.000 -0.000 208.000 l
13.856 216.000 13.856 200.000 l
-0.000 208.000 13.856 216.000 l
-0.000 224.000 -0.000 208.000 l
13.856 216.000 -0.000 224.000 l
27.713 208.000 13.856 216.000 l
27.713 224.000 27.713 208.000 l
41.569 216.000 27.713 224.000 l
41.569 232.000 41.569 216.000 l
27.713 224.000 41.569 232.000 l
27.713 240.000 27.713 224.000 l
13.856 232.000 27.713 240.000 l
-0.000 224.000 13.856 232.000 l
-0.000 240.000 -0.000 224.000 l
13.856 232.000 -0.000 240.000 l
13.856 248.000 13.856 232.000 l
-0.000 240.000 13.856 248.000 l
-0.000 256.000 -0.000 240.000 l
13.856 248.000 -0.000 256.000 l
27.713 240.000 13.856 248.000 l
41.569 232.000 27.713 240.000 l
55.426 224.000 41.569 232.000 l
69.282 216.000 55.426 224.000 l
83.138 208.000 69.282 216.000 l
96.995 200.000 83.138 208.000 l
110.851 192.000 96.995 200.000 l
124.708 184.000 110.851 192.000 l
138.564 176.000 124.708 184.000 l
152.420 168.000 138.564 176.000 l
166.277 160.000 152.420 168.000 l
180.133 152.000 166.277 160.000 l
193.990 144.000 180.133 152.000 l
207.846 136.000 193.990 144.000 l
221.703 128.000 207.846 136.000 l
207.846 120.000 221.703 128.000 l
193.990 112.000 207.846 120.000 l
180.133 104.000 193.990 112.000 l
166.277 96.000 180.133 104.000 l
152.420 88.000 166.277 96.000 l
138.564 80.000 152.420 88.000 l
124.708 72.000 138.564 80.000 l
110.851 64.000 124.708 72.000 l
96.995 56.000 110.851 64.000 l
83.138 48.000 96.995 56.000 l
69.282 40.000 83.138 48.000 l
55.426 32.000 69.282 40.000 l
41.569 24.000 55.426 32.000 l
27.713 16.000 41.569 24.000 l
13.856 8.000 27.713 16.000 l
-0.000 -0.000 13.856 8.000 l

showpage

restore
%%EOF
