%!PS-Adobe-3.0 EPSF-3.0
%%BoundingBox: 0 0 820.000 410.000
%%Title: L-system "Koch curve"
%%Creator: Python package l_system 01.00.00 --- Olivier Pirson --- http://www.opimedia.be/
%%EndComments
save

% Function
%%%%%%%%%%
/l {  % x1 y1 x0 y0
    moveto lineto stroke
} def

% Main
%%%%%%
0.000 neg 0.000 neg translate
5.000 5.000 translate

10.000 0.000 0.000 0.000 l
10.000 10.000 10.000 0.000 l
20.000 10.000 10.000 10.000 l
20.000 0.000 20.000 10.000 l
30.000 0.000 20.000 0.000 l
30.000 10.000 30.000 0.000 l
20.000 10.000 30.000 10.000 l
20.000 20.000 20.000 10.000 l
30.000 20.000 20.000 20.000 l
30.000 30.000 30.000 20.000 l
40.000 30.000 30.000 30.000 l
40.000 40.000 40.000 30.000 l
50.000 40.000 40.000 40.000 l
50.000 30.000 50.000 40.000 l
60.000 30.000 50.000 30.000 l
60.000 20.000 60.000 30.000 l
70.000 20.000 60.000 20.000 l
70.000 10.000 70.000 20.000 l
60.000 10.000 70.000 10.000 l
60.000 0.000 60.000 10.000 l
70.000 0.000 60.000 0.000 l
70.000 10.000 70.000 0.000 l
80.000 10.000 70.000 10.000 l
80.000 0.000 80.000 10.000 l
90.000 0.000 80.000 0.000 l
90.000 10.000 90.000 0.000 l
80.000 10.000 90.000 10.000 l
80.000 20.000 80.000 10.000 l
90.000 20.000 80.000 20.000 l
90.000 30.000 90.000 20.000 l
80.000 30.000 90.000 30.000 l
80.000 20.000 80.000 30.000 l
70.000 20.000 80.000 20.000 l
70.000 30.000 70.000 20.000 l
60.000 30.000 70.000 30.000 l
60.000 40.000 60.000 30.000 l
50.000 40.000 60.000 40.000 l
50.000 50.000 50.000 40.000 l
60.000 50.000 50.000 50.000 l
60.000 60.000 60.000 50.000 l
70.000 60.000 60.000 60.000 l
70.000 70.000 70.000 60.000 l
80.000 70.000 70.000 70.000 l
80.000 60.000 80.000 70.000 l
90.000 60.000 80.000 60.000 l
90.000 70.000 90.000 60.000 l
80.000 70.000 90.000 70.000 l
80.000 80.000 80.000 70.000 l
90.000 80.000 80.000 80.000 l
90.000 90.000 90.000 80.000 l
100.000 90.000 90.000 90.000 l
100.000 100.000 100.000 90.000 l
110.000 100.000 100.000 100.000 l
110.000 90.000 110.000 100.000 l
120.000 90.000 110.000 90.000 l
120.000 100.000 120.000 90.000 l
110.000 100.000 120.000 100.000 l
110.000 110.000 110.000 100.000 l
120.000 110.000 110.000 110.000 l
120.000 120.000 120.000 110.000 l
130.000 120.000 120.000 120.000 l
130.000 130.000 130.000 120.000 l
140.000 130.000 130.000 130.000 l
140.000 120.000 140.000 130.000 l
150.000 120.000 140.000 120.000 l
150.000 110.000 150.000 120.000 l
160.000 110.000 150.000 110.000 l
160.000 100.000 160.000 110.000 l
150.000 100.000 160.000 100.000 l
150.000 90.000 150.000 100.000 l
160.000 90.000 150.000 90.000 l
160.000 100.000 160.000 90.000 l
170.000 100.000 160.000 100.000 l
170.000 90.000 170.000 100.000 l
180.000 90.000 170.000 90.000 l
180.000 80.000 180.000 90.000 l
190.000 80.000 180.000 80.000 l
190.000 70.000 190.000 80.000 l
180.000 70.000 190.000 70.000 l
180.000 60.000 180.000 70.000 l
190.000 60.000 180.000 60.000 l
190.000 70.000 190.000 60.000 l
200.000 70.000 190.000 70.000 l
200.000 60.000 200.000 70.000 l
210.000 60.000 200.000 60.000 l
210.000 50.000 210.000 60.000 l
220.000 50.000 210.000 50.000 l
220.000 40.000 220.000 50.000 l
210.000 40.000 220.000 40.000 l
210.000 30.000 210.000 40.000 l
200.000 30.000 210.000 30.000 l
200.000 20.000 200.000 30.000 l
190.000 20.000 200.000 20.000 l
190.000 30.000 190.000 20.000 l
180.000 30.000 190.000 30.000 l
180.000 20.000 180.000 30.000 l
190.000 20.000 180.000 20.000 l
190.000 10.000 190.000 20.000 l
180.000 10.000 190.000 10.000 l
180.000 0.000 180.000 10.000 l
190.000 0.000 180.000 0.000 l
190.000 10.000 190.000 0.000 l
200.000 10.000 190.000 10.000 l
200.000 0.000 200.000 10.000 l
210.000 0.000 200.000 0.000 l
210.000 10.000 210.000 0.000 l
200.000 10.000 210.000 10.000 l
200.000 20.000 200.000 10.000 l
210.000 20.000 200.000 20.000 l
210.000 30.000 210.000 20.000 l
220.000 30.000 210.000 30.000 l
220.000 40.000 220.000 30.000 l
230.000 40.000 220.000 40.000 l
230.000 30.000 230.000 40.000 l
240.000 30.000 230.000 30.000 l
240.000 20.000 240.000 30.000 l
250.000 20.000 240.000 20.000 l
250.000 10.000 250.000 20.000 l
240.000 10.000 250.000 10.000 l
240.000 0.000 240.000 10.000 l
250.000 0.000 240.000 0.000 l
250.000 10.000 250.000 0.000 l
260.000 10.000 250.000 10.000 l
260.000 0.000 260.000 10.000 l
270.000 0.000 260.000 0.000 l
270.000 10.000 270.000 0.000 l
260.000 10.000 270.000 10.000 l
260.000 20.000 260.000 10.000 l
270.000 20.000 260.000 20.000 l
270.000 30.000 270.000 20.000 l
260.000 30.000 270.000 30.000 l
260.000 20.000 260.000 30.000 l
250.000 20.000 260.000 20.000 l
250.000 30.000 250.000 20.000 l
240.000 30.000 250.000 30.000 l
240.000 40.000 240.000 30.000 l
230.000 40.000 240.000 40.000 l
230.000 50.000 230.000 40.000 l
240.000 50.000 230.000 50.000 l
240.000 60.000 240.000 50.000 l
250.000 60.000 240.000 60.000 l
250.000 70.000 250.000 60.000 l
260.000 70.000 250.000 70.000 l
260.000 60.000 260.000 70.000 l
270.000 60.000 260.000 60.000 l
270.000 70.000 270.000 60.000 l
260.000 70.000 270.000 70.000 l
260.000 80.000 260.000 70.000 l
270.000 80.000 260.000 80.000 l
270.000 90.000 270.000 80.000 l
260.000 90.000 270.000 90.000 l
260.000 80.000 260.000 90.000 l
250.000 80.000 260.000 80.000 l
250.000 90.000 250.000 80.000 l
240.000 90.000 250.000 90.000 l
240.000 80.000 240.000 90.000 l
250.000 80.000 240.000 80.000 l
250.000 70.000 250.000 80.000 l
240.000 70.000 250.000 70.000 l
240.000 60.000 240.000 70.000 l
230.000 60.000 240.000 60.000 l
230.000 50.000 230.000 60.000 l
220.000 50.000 230.000 50.000 l
220.000 60.000 220.000 50.000 l
210.000 60.000 220.000 60.000 l
210.000 70.000 210.000 60.000 l
200.000 70.000 210.000 70.000 l
200.000 80.000 200.000 70.000 l
210.000 80.000 200.000 80.000 l
210.000 90.000 210.000 80.000 l
200.000 90.000 210.000 90.000 l
200.000 80.000 200.000 90.000 l
190.000 80.000 200.000 80.000 l
190.000 90.000 190.000 80.000 l
180.000 90.000 190.000 90.000 l
180.000 100.000 180.000 90.000 l
170.000 100.000 180.000 100.000 l
170.000 110.000 170.000 100.000 l
180.000 110.000 170.000 110.000 l
180.000 120.000 180.000 110.000 l
170.000 120.000 180.000 120.000 l
170.000 110.000 170.000 120.000 l
160.000 110.000 170.000 110.000 l
160.000 120.000 160.000 110.000 l
150.000 120.000 160.000 120.000 l
150.000 130.000 150.000 120.000 l
140.000 130.000 150.000 130.000 l
140.000 140.000 140.000 130.000 l
150.000 140.000 140.000 140.000 l
150.000 150.000 150.000 140.000 l
160.000 150.000 150.000 150.000 l
160.000 160.000 160.000 150.000 l
170.000 160.000 160.000 160.000 l
170.000 150.000 170.000 160.000 l
180.000 150.000 170.000 150.000 l
180.000 160.000 180.000 150.000 l
170.000 160.000 180.000 160.000 l
170.000 170.000 170.000 160.000 l
180.000 170.000 170.000 170.000 l
180.000 180.000 180.000 170.000 l
190.000 180.000 180.000 180.000 l
190.000 190.000 190.000 180.000 l
200.000 190.000 190.000 190.000 l
200.000 180.000 200.000 190.000 l
210.000 180.000 200.000 180.000 l
210.000 190.000 210.000 180.000 l
200.000 190.000 210.000 190.000 l
200.000 200.000 200.000 190.000 l
210.000 200.000 200.000 200.000 l
210.000 210.000 210.000 200.000 l
220.000 210.000 210.000 210.000 l
220.000 220.000 220.000 210.000 l
230.000 220.000 220.000 220.000 l
230.000 210.000 230.000 220.000 l
240.000 210.000 230.000 210.000 l
240.000 200.000 240.000 210.000 l
250.000 200.000 240.000 200.000 l
250.000 190.000 250.000 200.000 l
240.000 190.000 250.000 190.000 l
240.000 180.000 240.000 190.000 l
250.000 180.000 240.000 180.000 l
250.000 190.000 250.000 180.000 l
260.000 190.000 250.000 190.000 l
260.000 180.000 260.000 190.000 l
270.000 180.000 260.000 180.000 l
270.000 190.000 270.000 180.000 l
260.000 190.000 270.000 190.000 l
260.000 200.000 260.000 190.000 l
270.000 200.000 260.000 200.000 l
270.000 210.000 270.000 200.000 l
260.000 210.000 270.000 210.000 l
260.000 200.000 260.000 210.000 l
250.000 200.000 260.000 200.000 l
250.000 210.000 250.000 200.000 l
240.000 210.000 250.000 210.000 l
240.000 220.000 240.000 210.000 l
230.000 220.000 240.000 220.000 l
230.000 230.000 230.000 220.000 l
240.000 230.000 230.000 230.000 l
240.000 240.000 240.000 230.000 l
250.000 240.000 240.000 240.000 l
250.000 250.000 250.000 240.000 l
260.000 250.000 250.000 250.000 l
260.000 240.000 260.000 250.000 l
270.000 240.000 260.000 240.000 l
270.000 250.000 270.000 240.000 l
260.000 250.000 270.000 250.000 l
260.000 260.000 260.000 250.000 l
270.000 260.000 260.000 260.000 l
270.000 270.000 270.000 260.000 l
280.000 270.000 270.000 270.000 l
280.000 280.000 280.000 270.000 l
290.000 280.000 280.000 280.000 l
290.000 270.000 290.000 280.000 l
300.000 270.000 290.000 270.000 l
300.000 280.000 300.000 270.000 l
290.000 280.000 300.000 280.000 l
290.000 290.000 290.000 280.000 l
300.000 290.000 290.000 290.000 l
300.000 300.000 300.000 290.000 l
310.000 300.000 300.000 300.000 l
310.000 310.000 310.000 300.000 l
320.000 310.000 310.000 310.000 l
320.000 300.000 320.000 310.000 l
330.000 300.000 320.000 300.000 l
330.000 290.000 330.000 300.000 l
340.000 290.000 330.000 290.000 l
340.000 280.000 340.000 290.000 l
330.000 280.000 340.000 280.000 l
330.000 270.000 330.000 280.000 l
340.000 270.000 330.000 270.000 l
340.000 280.000 340.000 270.000 l
350.000 280.000 340.000 280.000 l
350.000 270.000 350.000 280.000 l
360.000 270.000 350.000 270.000 l
360.000 280.000 360.000 270.000 l
350.000 280.000 360.000 280.000 l
350.000 290.000 350.000 280.000 l
360.000 290.000 350.000 290.000 l
360.000 300.000 360.000 290.000 l
350.000 300.000 360.000 300.000 l
350.000 290.000 350.000 300.000 l
340.000 290.000 350.000 290.000 l
340.000 300.000 340.000 290.000 l
330.000 300.000 340.000 300.000 l
330.000 310.000 330.000 300.000 l
320.000 310.000 330.000 310.000 l
320.000 320.000 320.000 310.000 l
330.000 320.000 320.000 320.000 l
330.000 330.000 330.000 320.000 l
340.000 330.000 330.000 330.000 l
340.000 340.000 340.000 330.000 l
350.000 340.000 340.000 340.000 l
350.000 330.000 350.000 340.000 l
360.000 330.000 350.000 330.000 l
360.000 340.000 360.000 330.000 l
350.000 340.000 360.000 340.000 l
350.000 350.000 350.000 340.000 l
360.000 350.000 350.000 350.000 l
360.000 360.000 360.000 350.000 l
370.000 360.000 360.000 360.000 l
370.000 370.000 370.000 360.000 l
380.000 370.000 370.000 370.000 l
380.000 360.000 380.000 370.000 l
390.000 360.000 380.000 360.000 l
390.000 370.000 390.000 360.000 l
380.000 370.000 390.000 370.000 l
380.000 380.000 380.000 370.000 l
390.000 380.000 380.000 380.000 l
390.000 390.000 390.000 380.000 l
400.000 390.000 390.000 390.000 l
400.000 400.000 400.000 390.000 l
410.000 400.000 400.000 400.000 l
410.000 390.000 410.000 400.000 l
420.000 390.000 410.000 390.000 l
420.000 380.000 420.000 390.000 l
430.000 380.000 420.000 380.000 l
430.000 370.000 430.000 380.000 l
420.000 370.000 430.000 370.000 l
420.000 360.000 420.000 370.000 l
430.000 360.000 420.000 360.000 l
430.000 370.000 430.000 360.000 l
440.000 370.000 430.000 370.000 l
440.000 360.000 440.000 370.000 l
450.000 360.000 440.000 360.000 l
450.000 350.000 450.000 360.000 l
460.000 350.000 450.000 350.000 l
460.000 340.000 460.000 350.000 l
450.000 340.000 460.000 340.000 l
450.000 330.000 450.000 340.000 l
460.000 330.000 450.000 330.000 l
460.000 340.000 460.000 330.000 l
470.000 340.000 460.000 340.000 l
470.000 330.000 470.000 340.000 l
480.000 330.000 470.000 330.000 l
480.000 320.000 480.000 330.000 l
490.000 320.000 480.000 320.000 l
490.000 310.000 490.000 320.000 l
480.000 310.000 490.000 310.000 l
480.000 300.000 480.000 310.000 l
470.000 300.000 480.000 300.000 l
470.000 290.000 470.000 300.000 l
460.000 290.000 470.000 290.000 l
460.000 300.000 460.000 290.000 l
450.000 300.000 460.000 300.000 l
450.000 290.000 450.000 300.000 l
460.000 290.000 450.000 290.000 l
460.000 280.000 460.000 290.000 l
450.000 280.000 460.000 280.000 l
450.000 270.000 450.000 280.000 l
460.000 270.000 450.000 270.000 l
460.000 280.000 460.000 270.000 l
470.000 280.000 460.000 280.000 l
470.000 270.000 470.000 280.000 l
480.000 270.000 470.000 270.000 l
480.000 280.000 480.000 270.000 l
470.000 280.000 480.000 280.000 l
470.000 290.000 470.000 280.000 l
480.000 290.000 470.000 290.000 l
480.000 300.000 480.000 290.000 l
490.000 300.000 480.000 300.000 l
490.000 310.000 490.000 300.000 l
500.000 310.000 490.000 310.000 l
500.000 300.000 500.000 310.000 l
510.000 300.000 500.000 300.000 l
510.000 290.000 510.000 300.000 l
520.000 290.000 510.000 290.000 l
520.000 280.000 520.000 290.000 l
510.000 280.000 520.000 280.000 l
510.000 270.000 510.000 280.000 l
520.000 270.000 510.000 270.000 l
520.000 280.000 520.000 270.000 l
530.000 280.000 520.000 280.000 l
530.000 270.000 530.000 280.000 l
540.000 270.000 530.000 270.000 l
540.000 260.000 540.000 270.000 l
550.000 260.000 540.000 260.000 l
550.000 250.000 550.000 260.000 l
540.000 250.000 550.000 250.000 l
540.000 240.000 540.000 250.000 l
550.000 240.000 540.000 240.000 l
550.000 250.000 550.000 240.000 l
560.000 250.000 550.000 250.000 l
560.000 240.000 560.000 250.000 l
570.000 240.000 560.000 240.000 l
570.000 230.000 570.000 240.000 l
580.000 230.000 570.000 230.000 l
580.000 220.000 580.000 230.000 l
570.000 220.000 580.000 220.000 l
570.000 210.000 570.000 220.000 l
560.000 210.000 570.000 210.000 l
560.000 200.000 560.000 210.000 l
550.000 200.000 560.000 200.000 l
550.000 210.000 550.000 200.000 l
540.000 210.000 550.000 210.000 l
540.000 200.000 540.000 210.000 l
550.000 200.000 540.000 200.000 l
550.000 190.000 550.000 200.000 l
540.000 190.000 550.000 190.000 l
540.000 180.000 540.000 190.000 l
550.000 180.000 540.000 180.000 l
550.000 190.000 550.000 180.000 l
560.000 190.000 550.000 190.000 l
560.000 180.000 560.000 190.000 l
570.000 180.000 560.000 180.000 l
570.000 190.000 570.000 180.000 l
560.000 190.000 570.000 190.000 l
560.000 200.000 560.000 190.000 l
570.000 200.000 560.000 200.000 l
570.000 210.000 570.000 200.000 l
580.000 210.000 570.000 210.000 l
580.000 220.000 580.000 210.000 l
590.000 220.000 580.000 220.000 l
590.000 210.000 590.000 220.000 l
600.000 210.000 590.000 210.000 l
600.000 200.000 600.000 210.000 l
610.000 200.000 600.000 200.000 l
610.000 190.000 610.000 200.000 l
600.000 190.000 610.000 190.000 l
600.000 180.000 600.000 190.000 l
610.000 180.000 600.000 180.000 l
610.000 190.000 610.000 180.000 l
620.000 190.000 610.000 190.000 l
620.000 180.000 620.000 190.000 l
630.000 180.000 620.000 180.000 l
630.000 170.000 630.000 180.000 l
640.000 170.000 630.000 170.000 l
640.000 160.000 640.000 170.000 l
630.000 160.000 640.000 160.000 l
630.000 150.000 630.000 160.000 l
640.000 150.000 630.000 150.000 l
640.000 160.000 640.000 150.000 l
650.000 160.000 640.000 160.000 l
650.000 150.000 650.000 160.000 l
660.000 150.000 650.000 150.000 l
660.000 140.000 660.000 150.000 l
670.000 140.000 660.000 140.000 l
670.000 130.000 670.000 140.000 l
660.000 130.000 670.000 130.000 l
660.000 120.000 660.000 130.000 l
650.000 120.000 660.000 120.000 l
650.000 110.000 650.000 120.000 l
640.000 110.000 650.000 110.000 l
640.000 120.000 640.000 110.000 l
630.000 120.000 640.000 120.000 l
630.000 110.000 630.000 120.000 l
640.000 110.000 630.000 110.000 l
640.000 100.000 640.000 110.000 l
630.000 100.000 640.000 100.000 l
630.000 90.000 630.000 100.000 l
620.000 90.000 630.000 90.000 l
620.000 80.000 620.000 90.000 l
610.000 80.000 620.000 80.000 l
610.000 90.000 610.000 80.000 l
600.000 90.000 610.000 90.000 l
600.000 80.000 600.000 90.000 l
610.000 80.000 600.000 80.000 l
610.000 70.000 610.000 80.000 l
600.000 70.000 610.000 70.000 l
600.000 60.000 600.000 70.000 l
590.000 60.000 600.000 60.000 l
590.000 50.000 590.000 60.000 l
580.000 50.000 590.000 50.000 l
580.000 60.000 580.000 50.000 l
570.000 60.000 580.000 60.000 l
570.000 70.000 570.000 60.000 l
560.000 70.000 570.000 70.000 l
560.000 80.000 560.000 70.000 l
570.000 80.000 560.000 80.000 l
570.000 90.000 570.000 80.000 l
560.000 90.000 570.000 90.000 l
560.000 80.000 560.000 90.000 l
550.000 80.000 560.000 80.000 l
550.000 90.000 550.000 80.000 l
540.000 90.000 550.000 90.000 l
540.000 80.000 540.000 90.000 l
550.000 80.000 540.000 80.000 l
550.000 70.000 550.000 80.000 l
540.000 70.000 550.000 70.000 l
540.000 60.000 540.000 70.000 l
550.000 60.000 540.000 60.000 l
550.000 70.000 550.000 60.000 l
560.000 70.000 550.000 70.000 l
560.000 60.000 560.000 70.000 l
570.000 60.000 560.000 60.000 l
570.000 50.000 570.000 60.000 l
580.000 50.000 570.000 50.000 l
580.000 40.000 580.000 50.000 l
570.000 40.000 580.000 40.000 l
570.000 30.000 570.000 40.000 l
560.000 30.000 570.000 30.000 l
560.000 20.000 560.000 30.000 l
550.000 20.000 560.000 20.000 l
550.000 30.000 550.000 20.000 l
540.000 30.000 550.000 30.000 l
540.000 20.000 540.000 30.000 l
550.000 20.000 540.000 20.000 l
550.000 10.000 550.000 20.000 l
540.000 10.000 550.000 10.000 l
540.000 0.000 540.000 10.000 l
550.000 0.000 540.000 0.000 l
550.000 10.000 550.000 0.000 l
560.000 10.000 550.000 10.000 l
560.000 0.000 560.000 10.000 l
570.000 0.000 560.000 0.000 l
570.000 10.000 570.000 0.000 l
560.000 10.000 570.000 10.000 l
560.000 20.000 560.000 10.000 l
570.000 20.000 560.000 20.000 l
570.000 30.000 570.000 20.000 l
580.000 30.000 570.000 30.000 l
580.000 40.000 580.000 30.000 l
590.000 40.000 580.000 40.000 l
590.000 30.000 590.000 40.000 l
600.000 30.000 590.000 30.000 l
600.000 20.000 600.000 30.000 l
610.000 20.000 600.000 20.000 l
610.000 10.000 610.000 20.000 l
600.000 10.000 610.000 10.000 l
600.000 0.000 600.000 10.000 l
610.000 0.000 600.000 0.000 l
610.000 10.000 610.000 0.000 l
620.000 10.000 610.000 10.000 l
620.000 0.000 620.000 10.000 l
630.000 0.000 620.000 0.000 l
630.000 10.000 630.000 0.000 l
620.000 10.000 630.000 10.000 l
620.000 20.000 620.000 10.000 l
630.000 20.000 620.000 20.000 l
630.000 30.000 630.000 20.000 l
620.000 30.000 630.000 30.000 l
620.000 20.000 620.000 30.000 l
610.000 20.000 620.000 20.000 l
610.000 30.000 610.000 20.000 l
600.000 30.000 610.000 30.000 l
600.000 40.000 600.000 30.000 l
590.000 40.000 600.000 40.000 l
590.000 50.000 590.000 40.000 l
600.000 50.000 590.000 50.000 l
600.000 60.000 600.000 50.000 l
610.000 60.000 600.000 60.000 l
610.000 70.000 610.000 60.000 l
620.000 70.000 610.000 70.000 l
620.000 60.000 620.000 70.000 l
630.000 60.000 620.000 60.000 l
630.000 70.000 630.000 60.000 l
620.000 70.000 630.000 70.000 l
620.000 80.000 620.000 70.000 l
630.000 80.000 620.000 80.000 l
630.000 90.000 630.000 80.000 l
640.000 90.000 630.000 90.000 l
640.000 100.000 640.000 90.000 l
650.000 100.000 640.000 100.000 l
650.000 90.000 650.000 100.000 l
660.000 90.000 650.000 90.000 l
660.000 100.000 660.000 90.000 l
650.000 100.000 660.000 100.000 l
650.000 110.000 650.000 100.000 l
660.000 110.000 650.000 110.000 l
660.000 120.000 660.000 110.000 l
670.000 120.000 660.000 120.000 l
670.000 130.000 670.000 120.000 l
680.000 130.000 670.000 130.000 l
680.000 120.000 680.000 130.000 l
690.000 120.000 680.000 120.000 l
690.000 110.000 690.000 120.000 l
700.000 110.000 690.000 110.000 l
700.000 100.000 700.000 110.000 l
690.000 100.000 700.000 100.000 l
690.000 90.000 690.000 100.000 l
700.000 90.000 690.000 90.000 l
700.000 100.000 700.000 90.000 l
710.000 100.000 700.000 100.000 l
710.000 90.000 710.000 100.000 l
720.000 90.000 710.000 90.000 l
720.000 80.000 720.000 90.000 l
730.000 80.000 720.000 80.000 l
730.000 70.000 730.000 80.000 l
720.000 70.000 730.000 70.000 l
720.000 60.000 720.000 70.000 l
730.000 60.000 720.000 60.000 l
730.000 70.000 730.000 60.000 l
740.000 70.000 730.000 70.000 l
740.000 60.000 740.000 70.000 l
750.000 60.000 740.000 60.000 l
750.000 50.000 750.000 60.000 l
760.000 50.000 750.000 50.000 l
760.000 40.000 760.000 50.000 l
750.000 40.000 760.000 40.000 l
750.000 30.000 750.000 40.000 l
740.000 30.000 750.000 30.000 l
740.000 20.000 740.000 30.000 l
730.000 20.000 740.000 20.000 l
730.000 30.000 730.000 20.000 l
720.000 30.000 730.000 30.000 l
720.000 20.000 720.000 30.000 l
730.000 20.000 720.000 20.000 l
730.000 10.000 730.000 20.000 l
720.000 10.000 730.000 10.000 l
720.000 0.000 720.000 10.000 l
730.000 0.000 720.000 0.000 l
730.000 10.000 730.000 0.000 l
740.000 10.000 730.000 10.000 l
740.000 0.000 740.000 10.000 l
750.000 0.000 740.000 0.000 l
750.000 10.000 750.000 0.000 l
740.000 10.000 750.000 10.000 l
740.000 20.000 740.000 10.000 l
750.000 20.000 740.000 20.000 l
750.000 30.000 750.000 20.000 l
760.000 30.000 750.000 30.000 l
760.000 40.000 760.000 30.000 l
770.000 40.000 760.000 40.000 l
770.000 30.000 770.000 40.000 l
780.000 30.000 770.000 30.000 l
780.000 20.000 780.000 30.000 l
790.000 20.000 780.000 20.000 l
790.000 10.000 790.000 20.000 l
780.000 10.000 790.000 10.000 l
780.000 0.000 780.000 10.000 l
790.000 0.000 780.000 0.000 l
790.000 10.000 790.000 0.000 l
800.000 10.000 790.000 10.000 l
800.000 0.000 800.000 10.000 l
810.000 0.000 800.000 0.000 l

showpage

restore
%%EOF
